src/test_bench/alu_test.vcd
$date
	Mon May 11 10:54:08 2026
$end
$version
	QuestaSim Version 10.6c
$end
$timescale
	1ps
$end

$scope module alu_testbench $end
$var reg 8 ! OPA [7:0] $end
$var reg 8 " OPB [7:0] $end
$var reg 1 # CLK $end
$var reg 1 $ RST $end
$var reg 1 % CE $end
$var reg 1 & MODE $end
$var reg 1 ' CIN $end
$var reg 4 ( CMD [3:0] $end
$var reg 2 ) INP_VALID [1:0] $end
$var wire 1 * RES_dut [15] $end
$var wire 1 + RES_dut [14] $end
$var wire 1 , RES_dut [13] $end
$var wire 1 - RES_dut [12] $end
$var wire 1 . RES_dut [11] $end
$var wire 1 / RES_dut [10] $end
$var wire 1 0 RES_dut [9] $end
$var wire 1 1 RES_dut [8] $end
$var wire 1 2 RES_dut [7] $end
$var wire 1 3 RES_dut [6] $end
$var wire 1 4 RES_dut [5] $end
$var wire 1 5 RES_dut [4] $end
$var wire 1 6 RES_dut [3] $end
$var wire 1 7 RES_dut [2] $end
$var wire 1 8 RES_dut [1] $end
$var wire 1 9 RES_dut [0] $end
$var wire 1 : COUT_dut $end
$var wire 1 ; OFLOW_dut $end
$var wire 1 < G_dut $end
$var wire 1 = E_dut $end
$var wire 1 > L_dut $end
$var wire 1 ? ERR_dut $end
$var wire 1 @ RES_ref [8] $end
$var wire 1 A RES_ref [7] $end
$var wire 1 B RES_ref [6] $end
$var wire 1 C RES_ref [5] $end
$var wire 1 D RES_ref [4] $end
$var wire 1 E RES_ref [3] $end
$var wire 1 F RES_ref [2] $end
$var wire 1 G RES_ref [1] $end
$var wire 1 H RES_ref [0] $end
$var wire 1 I COUT_ref $end
$var wire 1 J OFLOW_ref $end
$var wire 1 K G_ref $end
$var wire 1 L E_ref $end
$var wire 1 M L_ref $end
$var wire 1 N ERR_ref $end
$var integer 32 O pass_count $end
$var integer 32 P fail_count $end
$var integer 32 Q test_count $end
$var reg 1 R cmp $end
$var reg 1 S abcd $end

$scope task test_arithmetic $end
$upscope $end

$scope task test_logical $end
$upscope $end

$scope task apply_test $end
$var reg 8 T a [7:0] $end
$var reg 8 U b [7:0] $end
$var reg 4 V cmd [3:0] $end
$var reg 640 W test_name [640:1] $end
$upscope $end

$scope task compare_outputs $end
$var reg 1 X compare__outputs $end
$upscope $end

$scope function compare_bit $end
$var reg 1 Y compare_bit $end
$var reg 1 Z dut $end
$var reg 1 [ ref $end
$upscope $end

$scope task display_mismatch $end
$upscope $end

$scope module dut $end
$var parameter 32 \ width $end
$var parameter 32 ] cmd_width $end
$var parameter 32 ^ out_width $end
$var wire 1 _ OPA [7] $end
$var wire 1 ` OPA [6] $end
$var wire 1 a OPA [5] $end
$var wire 1 b OPA [4] $end
$var wire 1 c OPA [3] $end
$var wire 1 d OPA [2] $end
$var wire 1 e OPA [1] $end
$var wire 1 f OPA [0] $end
$var wire 1 g OPB [7] $end
$var wire 1 h OPB [6] $end
$var wire 1 i OPB [5] $end
$var wire 1 j OPB [4] $end
$var wire 1 k OPB [3] $end
$var wire 1 l OPB [2] $end
$var wire 1 m OPB [1] $end
$var wire 1 n OPB [0] $end
$var wire 1 o CLK $end
$var wire 1 p RST $end
$var wire 1 q CE $end
$var wire 1 r MODE $end
$var wire 1 s CIN $end
$var wire 1 t inp_valid [1] $end
$var wire 1 u inp_valid [0] $end
$var wire 1 v CMD [3] $end
$var wire 1 w CMD [2] $end
$var wire 1 x CMD [1] $end
$var wire 1 y CMD [0] $end
$var reg 16 z RES [15:0] $end
$var reg 1 { COUT $end
$var reg 1 | OFLOW $end
$var reg 1 } G $end
$var reg 1 ~ E $end
$var reg 1 !! L $end
$var reg 1 "! ERR $end
$var reg 16 #! temp_signed [15:0] $end
$var reg 16 $! temp_res [15:0] $end
$var reg 1 %! temp_cout $end
$var reg 1 &! temp_oflow $end
$var reg 1 '! temp_g $end
$var reg 1 (! temp_e $end
$var reg 1 )! temp_l $end
$var reg 1 *! temp_err $end
$var reg 8 +! A_signed [7:0] $end
$var reg 8 ,! B_signed [7:0] $end
$var integer 32 -! count $end
$var integer 32 .! count1 $end
$upscope $end

$scope module ref $end
$var wire 1 /! CE $end
$var wire 1 0! INP_VALID [1] $end
$var wire 1 1! INP_VALID [0] $end
$var wire 1 2! OPA [7] $end
$var wire 1 3! OPA [6] $end
$var wire 1 4! OPA [5] $end
$var wire 1 5! OPA [4] $end
$var wire 1 6! OPA [3] $end
$var wire 1 7! OPA [2] $end
$var wire 1 8! OPA [1] $end
$var wire 1 9! OPA [0] $end
$var wire 1 :! OPB [7] $end
$var wire 1 ;! OPB [6] $end
$var wire 1 <! OPB [5] $end
$var wire 1 =! OPB [4] $end
$var wire 1 >! OPB [3] $end
$var wire 1 ?! OPB [2] $end
$var wire 1 @! OPB [1] $end
$var wire 1 A! OPB [0] $end
$var wire 1 B! CIN $end
$var wire 1 C! MODE $end
$var wire 1 D! CMD [3] $end
$var wire 1 E! CMD [2] $end
$var wire 1 F! CMD [1] $end
$var wire 1 G! CMD [0] $end
$var reg 17 H! RES [16:0] $end
$var reg 1 I! COUT $end
$var reg 1 J! OFLOW $end
$var reg 1 K! G $end
$var reg 1 L! E $end
$var reg 1 M! L $end
$var reg 1 N! ERR $end
$var wire 1 O! sOPA [7] $end
$var wire 1 P! sOPA [6] $end
$var wire 1 Q! sOPA [5] $end
$var wire 1 R! sOPA [4] $end
$var wire 1 S! sOPA [3] $end
$var wire 1 T! sOPA [2] $end
$var wire 1 U! sOPA [1] $end
$var wire 1 V! sOPA [0] $end
$var wire 1 W! sOPB [7] $end
$var wire 1 X! sOPB [6] $end
$var wire 1 Y! sOPB [5] $end
$var wire 1 Z! sOPB [4] $end
$var wire 1 [! sOPB [3] $end
$var wire 1 \! sOPB [2] $end
$var wire 1 ]! sOPB [1] $end
$var wire 1 ^! sOPB [0] $end
$var wire 1 _! s_add [7] $end
$var wire 1 `! s_add [6] $end
$var wire 1 a! s_add [5] $end
$var wire 1 b! s_add [4] $end
$var wire 1 c! s_add [3] $end
$var wire 1 d! s_add [2] $end
$var wire 1 e! s_add [1] $end
$var wire 1 f! s_add [0] $end
$var wire 1 g! s_sub [7] $end
$var wire 1 h! s_sub [6] $end
$var wire 1 i! s_sub [5] $end
$var wire 1 j! s_sub [4] $end
$var wire 1 k! s_sub [3] $end
$var wire 1 l! s_sub [2] $end
$var wire 1 m! s_sub [1] $end
$var wire 1 n! s_sub [0] $end
$upscope $end
$upscope $end
$enddefinitions $end
#0
$dumpvars
b0 !
b0 "
0#
0$
0%
0&
0'
b0 (
bx )
xR
xS
bx z
x{
x|
x}
x~
x!!
x"!
b0 #!
b0 $!
0%!
0&!
0'!
0(!
0)!
1*!
b0 +!
b0 ,!
b0 H!
0I!
0J!
0K!
0L!
0M!
0N!
bx T
bx U
bx V
bx W
xX
xY
xZ
x[
b1000 \
b100 ]
b10000 ^
b0 O
b0 P
b0 Q
b1 -!
b1 .!
x9
x8
x7
x6
x5
x4
x3
x2
x1
x0
x/
x.
x-
x,
x+
x*
x:
x;
x<
x=
x>
x?
0H
0G
0F
0E
0D
0C
0B
0A
0@
0I
0J
0K
0L
0M
0N
0V!
0U!
0T!
0S!
0R!
0Q!
0P!
0O!
0^!
0]!
0\!
0[!
0Z!
0Y!
0X!
0W!
0f!
0e!
0d!
0c!
0b!
0a!
0`!
0_!
0n!
0m!
0l!
0k!
0j!
0i!
0h!
0g!
0G!
0F!
0E!
0D!
0C!
0B!
0A!
0@!
0?!
0>!
0=!
0<!
0;!
0:!
09!
08!
07!
06!
05!
04!
03!
02!
x1!
x0!
0/!
0y
0x
0w
0v
xu
xt
0s
0r
0q
0p
0o
0n
0m
0l
0k
0j
0i
0h
0g
0f
0e
0d
0c
0b
0a
0`
0_
$end
#5000
1#
1o
1$
1p
b0 z
0{
0|
0}
0~
0!!
0"!
09
08
07
06
05
04
03
02
01
00
0/
0.
0-
0,
0+
0*
0:
0;
0<
0=
0>
0?
#10000
0#
0o
#15000
1#
1o
0$
1%
1q
0p
1/!
1N!
1N
#20000
0#
0o
#25000
1#
1o
0%
0q
0/!
0N!
0N
1"!
1?
#30000
0#
0o
#35000
1#
1o
1%
b1 !
b1 "
1&
1q
1/!
1A!
1n
19!
1f
1r
1C!
1^!
1V!
1e!
0*!
1*!
1N!
1N
#40000
0#
0o
#45000
1#
1o
0&
0r
0C!
0N!
1N!
0*!
1*!
#50000
0#
0o
#55000
1#
1o
1&
b1111 (
1r
1C!
1G!
1F!
1E!
1D!
1y
1x
1w
1v
0N!
1N!
0*!
1*!
#60000
0#
0o
#65000
1#
1o
0&
0r
0C!
0N!
1N!
0*!
1*!
#70000
0#
0o
#75000
1#
1o
b11 )
11!
10!
1u
1t
0*!
1*!
0N!
1N!
#80000
0#
0o
#85000
1#
1o
1&
b1 T
b1 U
b0 V
b10000010100010001000100 W
b0 (
1r
1C!
0G!
0F!
0E!
0D!
0y
0x
0w
0v
0N!
b10 H!
0*!
b10 $!
0N
1G
#90000
0#
0o
#95000
1#
1o
b10 z
0"!
18
0?
#100000
0#
0o
#105000
1#
1o
b1 Q
1X
0Z
0[
1Y
1R
b1 O
b11111111 T
b11111111 !
18!
17!
16!
15!
14!
13!
12!
1e
1d
1c
1b
1a
1`
1_
1U!
1T!
1S!
1R!
1Q!
1P!
1O!
0e!
1m!
1l!
1k!
1j!
1i!
1h!
1g!
b0 H!
b100000000 H!
1I!
b0 $!
b100000000 $!
1%!
0G
1@
1I
#110000
0#
0o
#115000
1#
1o
b100000000 z
1{
08
11
1:
#120000
0#
0o
#125000
1#
1o
b10 Q
1Z
1[
0Z
0[
b10 O
b0 T
b0 U
b0 !
b0 "
0A!
0n
09!
08!
07!
06!
05!
04!
03!
02!
0f
0e
0d
0c
0b
0a
0`
0_
0^!
0V!
0U!
0T!
0S!
0R!
0Q!
0P!
0O!
0m!
0l!
0k!
0j!
0i!
0h!
0g!
b0 H!
0I!
b0 $!
0%!
0@
0I
#130000
0#
0o
#135000
1#
1o
b0 z
0{
01
0:
#140000
0#
0o
#145000
1#
1o
b11 Q
b11 O
b1 T
b1 U
b1 V
b10100110101010101000010 W
b1 !
b1 "
b1 (
1G!
1y
1A!
1n
19!
1f
1^!
1V!
1e!
#150000
0#
0o
#155000
1#
1o
#160000
0#
0o
#165000
1#
1o
b100 Q
b100 O
b0 T
b0 !
09!
0f
0V!
1f!
0e!
1n!
1m!
1l!
1k!
1j!
1i!
1h!
1g!
1J!
b11111111111111111 H!
b1111111111111111 $!
1&!
1J
1H
1G
1F
1E
1D
1C
1B
1A
1@
#170000
0#
0o
#175000
1#
1o
b1111111111111111 z
1|
19
18
17
16
15
14
13
12
11
10
1/
1.
1-
1,
1+
1*
1;
#180000
0#
0o
#185000
1#
1o
b101 Q
0X
1Z
1[
0Z
0[
0R
b1 P
b1010000 T
b1010000 U
b1010000 !
b1010000 "
0A!
1=!
1;!
0n
1j
1h
15!
13!
1b
1`
0^!
1Z!
1X!
1R!
1P!
0f!
1a!
1_!
0n!
0m!
0l!
0k!
0j!
0i!
0h!
0g!
b0 H!
0J!
b0 $!
0&!
0H
0G
0F
0E
0D
0C
0B
0A
0@
0J
#190000
0#
0o
#195000
1#
1o
b0 z
0|
09
08
07
06
05
04
03
02
01
00
0/
0.
0-
0,
0+
0*
0;
#200000
0#
0o
#205000
1#
1o
b110 Q
1X
1R
b101 O
1'
b11111111 T
b0 U
b10 V
b1000001010001000100010001011111010000110100100101001110 W
b11111111 !
b0 "
b10 (
1s
1B!
0G!
1F!
0y
1x
0=!
0;!
0j
0h
19!
18!
17!
16!
14!
12!
1f
1e
1d
1c
1a
1_
0Z!
0X!
1V!
1U!
1T!
1S!
1Q!
1O!
1f!
1e!
1d!
1c!
1b!
1`!
1n!
1m!
1l!
1k!
1j!
1i!
1h!
1g!
b100000000 H!
1I!
b100000000 $!
1%!
1@
1I
#210000
0#
0o
#215000
1#
1o
b100000000 z
1{
11
1:
#220000
0#
0o
#225000
1#
1o
b111 Q
1Z
1[
0Z
0[
b110 O
0'
0s
0B!
b0 H!
0I!
b11111111 H!
b0 $!
0%!
b11111111 $!
1H
1G
1F
1E
1D
1C
1B
1A
0@
0I
#230000
0#
0o
#235000
1#
1o
b11111111 z
0{
19
18
17
16
15
14
13
12
01
0:
#240000
0#
0o
#245000
1#
1o
b1000 Q
b111 O
1'
b1 T
b1 U
b1 !
b1 "
1s
1B!
1A!
1n
08!
07!
06!
05!
04!
03!
02!
0e
0d
0c
0b
0a
0`
0_
1^!
0U!
0T!
0S!
0R!
0Q!
0P!
0O!
0f!
0d!
0c!
0b!
0a!
0`!
0_!
0n!
0m!
0l!
0k!
0j!
0i!
0h!
0g!
b0 H!
b11 H!
b0 $!
b11 $!
0F
0E
0D
0C
0B
0A
#250000
0#
0o
#255000
1#
1o
b11 z
07
06
05
04
03
02
#260000
0#
0o
#265000
1#
1o
b1001 Q
b1000 O
0'
1'
b1010 T
b11 U
b11 V
b1010011010101010100001001011111010000110100100101001110 W
b1010 !
b11 "
b11 (
1G!
1y
1@!
1m
09!
18!
16!
0f
1e
1c
1]!
0V!
1U!
1S!
1f!
0e!
1d!
1c!
1n!
1m!
1l!
b0 $!
b110 $!
b0 H!
b110 H!
0H
1F
#270000
0#
0o
#275000
1#
1o
b110 z
09
17
#280000
0#
0o
#285000
1#
1o
b1010 Q
b1001 O
b0 T
b0 U
b0 !
b0 "
0A!
0@!
0n
0m
08!
06!
0e
0c
0^!
0]!
0U!
0S!
0f!
0d!
0c!
0n!
0m!
0l!
b0 H!
b11111111111111111 H!
b0 $!
b1111111111111111 $!
1&!
1H
1E
1D
1C
1B
1A
1@
#290000
0#
0o
#295000
1#
1o
b1111111111111111 z
1|
19
16
15
14
13
12
11
10
1/
1.
1-
1,
1+
1*
1;
#300000
0#
0o
#305000
1#
1o
b1011 Q
0X
1Z
0Y
0Z
1Y
0R
b10 P
0'
b1 T
b1 U
b1 !
b1 "
0s
0B!
1A!
1n
19!
1f
1^!
1V!
1e!
b0 H!
b0 $!
0&!
0H
0G
0F
0E
0D
0C
0B
0A
0@
#310000
0#
0o
#315000
1#
1o
b0 z
0|
09
08
07
06
05
04
03
02
01
00
0/
0.
0-
0,
0+
0*
0;
#320000
0#
0o
#325000
1#
1o
b1100 Q
1X
1R
b1010 O
1'
1s
1B!
b11111111111111111 H!
b1111111111111111 $!
1&!
1H
1G
1F
1E
1D
1C
1B
1A
1@
#330000
0#
0o
#335000
1#
1o
b1111111111111111 z
1|
19
18
17
16
15
14
13
12
11
10
1/
1.
1-
1,
1+
1*
1;
#340000
0#
0o
#345000
1#
1o
b1101 Q
0X
1Z
0Y
0Z
1Y
0R
b11 P
0'
b1010000 T
b0 U
b100 V
b100100101001110010000110101111101000001 W
b1010000 !
b0 "
b100 (
0s
0B!
0G!
0F!
1E!
0y
0x
1w
0A!
0n
09!
15!
13!
0f
1b
1`
0^!
0V!
1R!
1P!
0e!
1b!
1`!
1j!
1h!
b0 H!
b1010001 H!
b0 $!
0&!
b1010001 $!
0G
0F
0E
0C
0A
0@
#350000
0#
0o
#355000
1#
1o
b1010001 z
0|
08
07
06
04
02
01
00
0/
0.
0-
0,
0+
0*
0;
#360000
0#
0o
#365000
1#
1o
b1110 Q
1X
1R
b1011 O
b11111111 T
b11111111 !
19!
18!
17!
16!
14!
12!
1f
1e
1d
1c
1a
1_
1V!
1U!
1T!
1S!
1Q!
1O!
1f!
1e!
1d!
1c!
1a!
1_!
1n!
1m!
1l!
1k!
1i!
1g!
b0 H!
b100000000 H!
b0 $!
b100000000 $!
0H
0D
0B
1@
#370000
0#
0o
#375000
1#
1o
b100000000 z
09
05
03
11
#380000
0#
0o
#385000
1#
1o
b1111 Q
b1100 O
b1010 T
b1010 !
09!
07!
05!
04!
03!
02!
0f
0d
0b
0a
0`
0_
0V!
0T!
0R!
0Q!
0P!
0O!
0f!
0d!
0b!
0a!
0`!
0_!
0n!
0l!
0j!
0i!
0h!
0g!
b0 H!
b1011 H!
b0 $!
b1011 $!
1H
1G
1E
0@
#390000
0#
0o
#395000
1#
1o
b1011 z
19
18
16
01
#400000
0#
0o
#405000
1#
1o
b10000 Q
b1101 O
b1001001 T
b101 V
b100010001000101010000110101111101000001 W
b1001001 !
b101 (
1G!
1y
19!
08!
13!
1f
0e
1`
1V!
0U!
1P!
1f!
0e!
1`!
1n!
0m!
1h!
b0 $!
b1001000 $!
b0 H!
b1001000 H!
0H
0G
1B
#410000
0#
0o
#415000
1#
1o
b1001000 z
09
08
13
#420000
0#
0o
#425000
1#
1o
b10001 Q
b1110 O
b0 T
b0 !
09!
06!
03!
0f
0c
0`
0V!
0S!
0P!
0f!
0c!
0`!
0n!
0k!
0h!
b0 H!
b11111111111111111 H!
b0 $!
b1111111111111111 $!
1H
1G
1F
1D
1C
1A
1@
#430000
0#
0o
#435000
1#
1o
b1111111111111111 z
19
18
17
15
14
12
11
10
1/
1.
1-
1,
1+
1*
#440000
0#
0o
#445000
1#
1o
b10010 Q
0X
0R
b100 P
b1010 T
b1010 !
18!
16!
1e
1c
1U!
1S!
1e!
1c!
1m!
1k!
b0 H!
b1001 H!
b0 $!
b1001 $!
0G
0F
0D
0C
0B
0A
0@
#450000
0#
0o
#455000
1#
1o
b1001 z
08
07
05
04
03
02
01
00
0/
0.
0-
0,
0+
0*
#460000
0#
0o
#465000
1#
1o
b10011 Q
1X
1R
b1111 O
b0 T
b1010000 U
b110 V
b100100101001110010000110101111101000010 W
b0 !
b1010000 "
b110 (
0G!
1F!
0y
1x
1=!
1;!
1j
1h
08!
06!
0e
0c
1Z!
1X!
0U!
0S!
0e!
0c!
1b!
1`!
0m!
0k!
1j!
1i!
1g!
b0 $!
b1010001 $!
b0 H!
b1010001 H!
0E
1D
1B
#470000
0#
0o
#475000
1#
1o
b1010001 z
06
15
13
#480000
0#
0o
#485000
1#
1o
b10100 Q
b10000 O
b11111111 U
b11111111 "
1A!
1@!
1?!
1>!
1<!
1:!
1n
1m
1l
1k
1i
1g
1^!
1]!
1\!
1[!
1Y!
1W!
1f!
1e!
1d!
1c!
1a!
1_!
1n!
0j!
0i!
0g!
b0 H!
b100000000 H!
b0 $!
b100000000 $!
0H
0D
0B
1@
#490000
0#
0o
#495000
1#
1o
b100000000 z
09
05
03
11
#500000
0#
0o
#505000
1#
1o
b10101 Q
b10001 O
b1001001 U
b111 V
b100010001000101010000110101111101000010 W
b1001001 "
b111 (
1G!
1y
0@!
0?!
0=!
0<!
0:!
0m
0l
0j
0i
0g
0]!
0\!
0Z!
0Y!
0W!
0e!
0d!
0b!
0a!
0_!
1m!
1l!
1j!
1i!
1g!
b0 $!
b1001000 $!
b0 H!
b1001000 H!
1E
1B
0@
#510000
0#
0o
#515000
1#
1o
b1001000 z
16
13
01
#520000
0#
0o
#525000
1#
1o
b10110 Q
b10010 O
b0 U
b0 "
0A!
0>!
0;!
0n
0k
0h
0^!
0[!
0X!
0f!
0c!
0`!
0n!
0m!
0l!
0j!
0i!
0g!
b0 H!
b11111111111111111 H!
b0 $!
b1111111111111111 $!
1H
1G
1F
1D
1C
1A
1@
#530000
0#
0o
#535000
1#
1o
b1111111111111111 z
19
18
17
15
14
12
11
10
1/
1.
1-
1,
1+
1*
#540000
0#
0o
#545000
1#
1o
b10111 Q
0X
0R
b101 P
b11001000 T
b1100100 U
b1000 V
b100001101001101010100000010000000101000011001010111000101110101011000010110110000101001 W
b11001000 !
b1100100 "
b1000 (
0G!
0F!
0E!
1D!
0y
0x
0w
1v
1?!
1<!
1;!
1l
1i
1h
16!
13!
12!
1c
1`
1_
1\!
1Y!
1X!
1S!
1P!
1O!
1d!
1c!
1a!
1l!
1i!
1h!
b0 $!
1'!
b0 H!
1K!
0H
0G
0F
0E
0D
0C
0B
0A
0@
1K
#550000
0#
0o
#555000
1#
1o
b0 z
1}
09
08
07
06
05
04
03
02
01
00
0/
0.
0-
0,
0+
0*
1<
#560000
0#
0o
#565000
1#
1o
b11000 Q
1X
1Z
1[
0Z
0[
1R
b10011 O
b110010 T
b11001000 U
b1000011010011010101000000100000001010000110011101110010011001010110000101110100011001010111001000101001 W
b110010 !
b11001000 "
0?!
1>!
0<!
1:!
0l
1k
0i
1g
18!
06!
15!
14!
03!
02!
1e
0c
1b
1a
0`
0_
0\!
1[!
0Y!
1W!
1U!
0S!
1R!
1Q!
0P!
0O!
1e!
0d!
1b!
1`!
1_!
1m!
0l!
1k!
0K!
1M!
0'!
1)!
0K
1M
#570000
0#
0o
#575000
1#
1o
0}
1!!
0<
1>
#580000
0#
0o
#585000
1#
1o
b11001 Q
1Z
1[
0Z
0[
b10100 O
b10000000 T
b10000000 U
b1000011010011010101000000100000001010000110110001100101011100110111001100101001 W
b10000000 !
b10000000 "
0>!
0;!
0k
0h
08!
05!
04!
12!
0e
0b
0a
1_
0[!
0X!
0U!
0R!
0Q!
1O!
0e!
0c!
0b!
0a!
0`!
0_!
0m!
0k!
0i!
0h!
0M!
1L!
0)!
1(!
0M
1L
#590000
0#
0o
#595000
1#
1o
1~
0!!
1=
0>
#600000
0#
0o
#605000
1#
1o
b11010 Q
1Z
1[
0Z
0[
b10101 O
b11111110 T
b11111110 U
b1001 V
b10011010101010101001100010111110100000101000010 W
b11111110 !
b11111110 "
b1001 (
1G!
1y
1@!
1?!
1>!
1=!
1<!
1;!
1m
1l
1k
1j
1i
1h
18!
17!
16!
15!
14!
13!
1e
1d
1c
1b
1a
1`
1]!
1\!
1[!
1Z!
1Y!
1X!
1U!
1T!
1S!
1R!
1Q!
1P!
1d!
1c!
1b!
1a!
1`!
1_!
0(!
b1111111000000001 $!
0L!
b1111111000000001 H!
0L
1H
#610000
0#
0o
#615000
1#
1o
b10 -!
#620000
0#
0o
#625000
1#
1o
b11011 Q
1S
bx z
b11 -!
x9
x8
x7
x6
x5
x4
x3
x2
x1
x0
x/
x.
x-
x,
x+
x*
#630000
0#
0o
#635000
1#
1o
b1 -!
b1111111000000001 z
19
08
07
06
05
04
03
02
01
10
1/
1.
1-
1,
1+
1*
#640000
0#
0o
#645000
1#
1o
0X
1Z
0Y
0Z
1Y
0R
b110 P
b11111111 T
b11111111 U
b11111111 !
b11111111 "
1A!
1n
19!
1f
1^!
1V!
1e!
b0 H!
b10000000000000000 H!
b0 $!
0H
b10 -!
#650000
0#
0o
#655000
1#
1o
b11 -!
bx z
x9
x8
x7
x6
x5
x4
x3
x2
x1
x0
x/
x.
x-
x,
x+
x*
#660000
0#
0o
#665000
1#
1o
b11100 Q
1X
b0 z
b1 -!
09
08
07
06
05
04
03
02
01
00
0/
0.
0-
0,
0+
0*
#670000
0#
0o
#675000
1#
1o
b10 -!
#680000
0#
0o
#685000
1#
1o
1Z
0Y
0X
0Z
1Y
b111 P
b11111110 T
b11111110 U
b11111110 !
b11111110 "
0A!
0n
09!
0f
0^!
0V!
0e!
b0 H!
b1111111000000001 H!
b1111111000000001 $!
1H
bx z
b11 -!
x9
x8
x7
x6
x5
x4
x3
x2
x1
x0
x/
x.
x-
x,
x+
x*
#690000
0#
0o
#695000
1#
1o
b1 -!
b1111111000000001 z
19
08
07
06
05
04
03
02
01
10
1/
1.
1-
1,
1+
1*
#700000
0#
0o
#705000
1#
1o
b11101 Q
1X
b10 -!
#710000
0#
0o
#715000
1#
1o
bx z
b11 -!
x9
x8
x7
x6
x5
x4
x3
x2
x1
x0
x/
x.
x-
x,
x+
x*
#720000
0#
0o
#725000
1#
1o
0X
1Z
0Y
0Z
1Y
b1000 P
b11 T
b100 U
b11 !
b100 "
0@!
0>!
0=!
0<!
0;!
0:!
0m
0k
0j
0i
0h
0g
19!
07!
06!
05!
04!
03!
02!
1f
0d
0c
0b
0a
0`
0_
0]!
0[!
0Z!
0Y!
0X!
0W!
1V!
0T!
0S!
0R!
0Q!
0P!
0O!
1f!
1e!
0c!
0b!
0a!
0`!
0_!
1n!
1m!
1l!
1k!
1j!
1i!
1h!
1g!
b0 H!
b10100 H!
b0 $!
b10100 $!
0H
1F
1D
b1 -!
b1111111000000001 z
19
08
07
06
05
04
03
02
01
10
1/
1.
1-
1,
1+
1*
#730000
0#
0o
#735000
1#
1o
b10 -!
#740000
0#
0o
#745000
1#
1o
b11110 Q
1X
bx z
b11 -!
x9
x8
x7
x6
x5
x4
x3
x2
x1
x0
x/
x.
x-
x,
x+
x*
#750000
0#
0o
#755000
1#
1o
b1 -!
b10100 z
09
08
17
06
15
04
03
02
01
00
0/
0.
0-
0,
0+
0*
#760000
0#
0o
#765000
1#
1o
1Z
0Y
0X
0Z
1Y
b1001 P
b0 T
b101 U
b0 !
b101 "
1A!
1n
09!
08!
0f
0e
1^!
0V!
0U!
0e!
0l!
b0 H!
b110 H!
b0 $!
b110 $!
1G
0D
b10 -!
#770000
0#
0o
#775000
1#
1o
b11 -!
bx z
x9
x8
x7
x6
x5
x4
x3
x2
x1
x0
x/
x.
x-
x,
x+
x*
#780000
0#
0o
#785000
1#
1o
b11111 Q
1X
b110 z
b1 -!
09
18
17
06
05
04
03
02
01
00
0/
0.
0-
0,
0+
0*
#790000
0#
0o
#795000
1#
1o
b10 -!
#800000
0#
0o
#805000
1#
1o
1Z
0Y
0X
0Z
1Y
b1010 P
b11111111 T
b11111111 U
b11111111 !
b11111111 "
1@!
1>!
1=!
1<!
1;!
1:!
1m
1k
1j
1i
1h
1g
19!
18!
17!
16!
15!
14!
13!
12!
1f
1e
1d
1c
1b
1a
1`
1_
1]!
1[!
1Z!
1Y!
1X!
1W!
1V!
1U!
1T!
1S!
1R!
1Q!
1P!
1O!
0f!
1e!
1c!
1b!
1a!
1`!
1_!
0n!
0m!
0k!
0j!
0i!
0h!
0g!
b0 H!
b10000000000000000 H!
b0 $!
0G
0F
bx z
b11 -!
x9
x8
x7
x6
x5
x4
x3
x2
x1
x0
x/
x.
x-
x,
x+
x*
#810000
0#
0o
#815000
1#
1o
b1 -!
b0 z
09
08
07
06
05
04
03
02
01
00
0/
0.
0-
0,
0+
0*
#820000
0#
0o
#825000
1#
1o
b100000 Q
1X
b10 -!
#830000
0#
0o
#835000
1#
1o
bx z
b11 -!
x9
x8
x7
x6
x5
x4
x3
x2
x1
x0
x/
x.
x-
x,
x+
x*
#840000
0#
0o
#845000
1#
1o
0X
1Z
0Y
0Z
1Y
b1011 P
b1100000 T
b1100000 U
b1100000 !
b1100000 "
0A!
0@!
0?!
0>!
0=!
0:!
0n
0m
0l
0k
0j
0g
09!
08!
07!
06!
05!
02!
0f
0e
0d
0c
0b
0_
0^!
0]!
0\!
0[!
0Z!
0W!
0V!
0U!
0T!
0S!
0R!
0O!
0e!
0d!
0c!
0b!
0a!
b0 H!
b10010011000001 H!
b10010011000001 $!
1H
1B
1A
b1 -!
b0 z
09
08
07
06
05
04
03
02
01
00
0/
0.
0-
0,
0+
0*
#850000
0#
0o
#855000
1#
1o
b10 -!
#860000
0#
0o
#865000
1#
1o
b100001 Q
1X
bx z
b11 -!
x9
x8
x7
x6
x5
x4
x3
x2
x1
x0
x/
x.
x-
x,
x+
x*
#870000
0#
0o
#875000
1#
1o
b1 -!
b10010011000001 z
19
08
07
06
05
04
13
12
01
00
1/
0.
0-
1,
0+
0*
#880000
0#
0o
#885000
1#
1o
0X
1Z
0Y
0Z
1Y
b1100 P
b1111110 T
b1111110 U
b1111110 !
b1111110 "
1@!
1?!
1>!
1=!
1m
1l
1k
1j
18!
17!
16!
15!
1e
1d
1c
1b
1]!
1\!
1[!
1Z!
1U!
1T!
1S!
1R!
1d!
1c!
1b!
1a!
b0 H!
b11111100000001 H!
b0 $!
b11111100000001 $!
0B
0A
1@
b10 -!
#890000
0#
0o
#895000
1#
1o
b11 -!
bx z
x9
x8
x7
x6
x5
x4
x3
x2
x1
x0
x/
x.
x-
x,
x+
x*
#900000
0#
0o
#905000
1#
1o
b100010 Q
1X
b11111100000001 z
b1 -!
19
08
07
06
05
04
03
02
11
10
1/
1.
1-
1,
0+
0*
#910000
0#
0o
#915000
1#
1o
b10 -!
#920000
0#
0o
#925000
1#
1o
0X
1Z
0Y
0Z
1Y
b1101 P
b1000 T
b1000 U
b1000 !
b1000 "
0@!
0?!
0=!
0<!
0;!
0m
0l
0j
0i
0h
08!
07!
05!
04!
03!
0e
0d
0b
0a
0`
0]!
0\!
0Z!
0Y!
0X!
0U!
0T!
0R!
0Q!
0P!
0d!
0c!
0a!
0`!
0_!
b0 H!
b1010001 H!
b0 $!
b1010001 $!
1D
1B
0@
bx z
b11 -!
x9
x8
x7
x6
x5
x4
x3
x2
x1
x0
x/
x.
x-
x,
x+
x*
#930000
0#
0o
#935000
1#
1o
b1 -!
b1010001 z
19
08
07
06
15
04
13
02
01
00
0/
0.
0-
0,
0+
0*
#940000
0#
0o
#945000
1#
1o
b100011 Q
1X
b10 -!
#950000
0#
0o
#955000
1#
1o
bx z
b11 -!
x9
x8
x7
x6
x5
x4
x3
x2
x1
x0
x/
x.
x-
x,
x+
x*
#960000
0#
0o
#965000
1#
1o
0X
1Z
0Y
0Z
1Y
b1110 P
b11 T
b11 U
b11 !
b11 "
1A!
1@!
0>!
1n
1m
0k
19!
18!
06!
1f
1e
0c
1^!
1]!
0[!
1V!
1U!
0S!
1e!
1d!
0b!
b0 H!
b10000 H!
b0 $!
b10000 $!
0H
0B
b1 -!
b1010001 z
19
08
07
06
15
04
13
02
01
00
0/
0.
0-
0,
0+
0*
#970000
0#
0o
#975000
1#
1o
b10 -!
#980000
0#
0o
#985000
1#
1o
b100100 Q
1X
bx z
b11 -!
x9
x8
x7
x6
x5
x4
x3
x2
x1
x0
x/
x.
x-
x,
x+
x*
#990000
0#
0o
#995000
1#
1o
b1 -!
b10000 z
09
08
07
06
15
04
03
02
01
00
0/
0.
0-
0,
0+
0*
