src/test_bench/alu_test.vcd
$date
	Mon May 11 16:29:41 2026
$end
$version
	QuestaSim Version 10.6c
$end
$timescale
	1ps
$end

$scope module alu_testbench $end
$var reg 8 ! OPA [7:0] $end
$var reg 8 " OPB [7:0] $end
$var reg 1 # CLK $end
$var reg 1 $ RST $end
$var reg 1 % CE $end
$var reg 1 & MODE $end
$var reg 1 ' CIN $end
$var reg 4 ( CMD [3:0] $end
$var reg 2 ) INP_VALID [1:0] $end
$var wire 1 * RES_dut [15] $end
$var wire 1 + RES_dut [14] $end
$var wire 1 , RES_dut [13] $end
$var wire 1 - RES_dut [12] $end
$var wire 1 . RES_dut [11] $end
$var wire 1 / RES_dut [10] $end
$var wire 1 0 RES_dut [9] $end
$var wire 1 1 RES_dut [8] $end
$var wire 1 2 RES_dut [7] $end
$var wire 1 3 RES_dut [6] $end
$var wire 1 4 RES_dut [5] $end
$var wire 1 5 RES_dut [4] $end
$var wire 1 6 RES_dut [3] $end
$var wire 1 7 RES_dut [2] $end
$var wire 1 8 RES_dut [1] $end
$var wire 1 9 RES_dut [0] $end
$var wire 1 : COUT_dut $end
$var wire 1 ; OFLOW_dut $end
$var wire 1 < G_dut $end
$var wire 1 = E_dut $end
$var wire 1 > L_dut $end
$var wire 1 ? ERR_dut $end
$var wire 1 @ RES_ref [15] $end
$var wire 1 A RES_ref [14] $end
$var wire 1 B RES_ref [13] $end
$var wire 1 C RES_ref [12] $end
$var wire 1 D RES_ref [11] $end
$var wire 1 E RES_ref [10] $end
$var wire 1 F RES_ref [9] $end
$var wire 1 G RES_ref [8] $end
$var wire 1 H RES_ref [7] $end
$var wire 1 I RES_ref [6] $end
$var wire 1 J RES_ref [5] $end
$var wire 1 K RES_ref [4] $end
$var wire 1 L RES_ref [3] $end
$var wire 1 M RES_ref [2] $end
$var wire 1 N RES_ref [1] $end
$var wire 1 O RES_ref [0] $end
$var wire 1 P COUT_ref $end
$var wire 1 Q OFLOW_ref $end
$var wire 1 R G_ref $end
$var wire 1 S E_ref $end
$var wire 1 T L_ref $end
$var wire 1 U ERR_ref $end
$var integer 32 V pass_count $end
$var integer 32 W fail_count $end
$var integer 32 X test_count $end
$var reg 1 Y cmp $end
$var reg 1 Z abcd $end

$scope task test_arithmetic $end
$upscope $end

$scope task test_logical $end
$upscope $end

$scope task apply_test $end
$var reg 8 [ a [7:0] $end
$var reg 8 \ b [7:0] $end
$var reg 4 ] cmd [3:0] $end
$var reg 640 ^ test_name [640:1] $end
$upscope $end

$scope task compare_outputs $end
$var reg 1 _ compare__outputs $end
$upscope $end

$scope function compare_bit $end
$var reg 1 ` compare_bit $end
$var reg 1 a dut $end
$var reg 1 b ref $end
$upscope $end

$scope task display_mismatch $end
$upscope $end

$scope module dut $end
$var parameter 32 c width $end
$var parameter 32 d cmd_width $end
$var parameter 32 e out_width $end
$var wire 1 f OPA [7] $end
$var wire 1 g OPA [6] $end
$var wire 1 h OPA [5] $end
$var wire 1 i OPA [4] $end
$var wire 1 j OPA [3] $end
$var wire 1 k OPA [2] $end
$var wire 1 l OPA [1] $end
$var wire 1 m OPA [0] $end
$var wire 1 n OPB [7] $end
$var wire 1 o OPB [6] $end
$var wire 1 p OPB [5] $end
$var wire 1 q OPB [4] $end
$var wire 1 r OPB [3] $end
$var wire 1 s OPB [2] $end
$var wire 1 t OPB [1] $end
$var wire 1 u OPB [0] $end
$var wire 1 v CLK $end
$var wire 1 w RST $end
$var wire 1 x CE $end
$var wire 1 y MODE $end
$var wire 1 z CIN $end
$var wire 1 { inp_valid [1] $end
$var wire 1 | inp_valid [0] $end
$var wire 1 } CMD [3] $end
$var wire 1 ~ CMD [2] $end
$var wire 1 !! CMD [1] $end
$var wire 1 "! CMD [0] $end
$var reg 16 #! RES [15:0] $end
$var reg 1 $! COUT $end
$var reg 1 %! OFLOW $end
$var reg 1 &! G $end
$var reg 1 '! E $end
$var reg 1 (! L $end
$var reg 1 )! ERR $end
$var reg 16 *! temp_signed [15:0] $end
$var reg 16 +! temp_res [15:0] $end
$var reg 1 ,! temp_cout $end
$var reg 1 -! temp_oflow $end
$var reg 1 .! temp_g $end
$var reg 1 /! temp_e $end
$var reg 1 0! temp_l $end
$var reg 1 1! temp_err $end
$var reg 8 2! A_signed [7:0] $end
$var reg 8 3! B_signed [7:0] $end
$var integer 32 4! count $end
$var integer 32 5! count1 $end
$upscope $end

$scope module ref $end
$var wire 1 6! CE $end
$var wire 1 7! INP_VALID [1] $end
$var wire 1 8! INP_VALID [0] $end
$var wire 1 9! OPA [7] $end
$var wire 1 :! OPA [6] $end
$var wire 1 ;! OPA [5] $end
$var wire 1 <! OPA [4] $end
$var wire 1 =! OPA [3] $end
$var wire 1 >! OPA [2] $end
$var wire 1 ?! OPA [1] $end
$var wire 1 @! OPA [0] $end
$var wire 1 A! OPB [7] $end
$var wire 1 B! OPB [6] $end
$var wire 1 C! OPB [5] $end
$var wire 1 D! OPB [4] $end
$var wire 1 E! OPB [3] $end
$var wire 1 F! OPB [2] $end
$var wire 1 G! OPB [1] $end
$var wire 1 H! OPB [0] $end
$var wire 1 I! CIN $end
$var wire 1 J! MODE $end
$var wire 1 K! CMD [3] $end
$var wire 1 L! CMD [2] $end
$var wire 1 M! CMD [1] $end
$var wire 1 N! CMD [0] $end
$var reg 16 O! RES [15:0] $end
$var reg 1 P! COUT $end
$var reg 1 Q! OFLOW $end
$var reg 1 R! G $end
$var reg 1 S! E $end
$var reg 1 T! L $end
$var reg 1 U! ERR $end
$var wire 1 V! sOPA [7] $end
$var wire 1 W! sOPA [6] $end
$var wire 1 X! sOPA [5] $end
$var wire 1 Y! sOPA [4] $end
$var wire 1 Z! sOPA [3] $end
$var wire 1 [! sOPA [2] $end
$var wire 1 \! sOPA [1] $end
$var wire 1 ]! sOPA [0] $end
$var wire 1 ^! sOPB [7] $end
$var wire 1 _! sOPB [6] $end
$var wire 1 `! sOPB [5] $end
$var wire 1 a! sOPB [4] $end
$var wire 1 b! sOPB [3] $end
$var wire 1 c! sOPB [2] $end
$var wire 1 d! sOPB [1] $end
$var wire 1 e! sOPB [0] $end
$var wire 1 f! s_add [15] $end
$var wire 1 g! s_add [14] $end
$var wire 1 h! s_add [13] $end
$var wire 1 i! s_add [12] $end
$var wire 1 j! s_add [11] $end
$var wire 1 k! s_add [10] $end
$var wire 1 l! s_add [9] $end
$var wire 1 m! s_add [8] $end
$var wire 1 n! s_add [7] $end
$var wire 1 o! s_add [6] $end
$var wire 1 p! s_add [5] $end
$var wire 1 q! s_add [4] $end
$var wire 1 r! s_add [3] $end
$var wire 1 s! s_add [2] $end
$var wire 1 t! s_add [1] $end
$var wire 1 u! s_add [0] $end
$var wire 1 v! s_sub [15] $end
$var wire 1 w! s_sub [14] $end
$var wire 1 x! s_sub [13] $end
$var wire 1 y! s_sub [12] $end
$var wire 1 z! s_sub [11] $end
$var wire 1 {! s_sub [10] $end
$var wire 1 |! s_sub [9] $end
$var wire 1 }! s_sub [8] $end
$var wire 1 ~! s_sub [7] $end
$var wire 1 !" s_sub [6] $end
$var wire 1 "" s_sub [5] $end
$var wire 1 #" s_sub [4] $end
$var wire 1 $" s_sub [3] $end
$var wire 1 %" s_sub [2] $end
$var wire 1 &" s_sub [1] $end
$var wire 1 '" s_sub [0] $end
$upscope $end
$upscope $end
$enddefinitions $end
#0
$dumpvars
b0 !
b0 "
0#
0$
0%
0&
0'
b0 (
bx )
xY
xZ
bx #!
x$!
x%!
x&!
x'!
x(!
x)!
b0 *!
b0 +!
0,!
0-!
0.!
0/!
00!
11!
b0 2!
b0 3!
b0 O!
0P!
0Q!
0R!
0S!
0T!
0U!
bx [
bx \
bx ]
bx ^
x_
x`
xa
xb
b1000 c
b100 d
b10000 e
b0 V
b0 W
b0 X
b1 4!
b1 5!
x9
x8
x7
x6
x5
x4
x3
x2
x1
x0
x/
x.
x-
x,
x+
x*
x:
x;
x<
x=
x>
x?
0O
0N
0M
0L
0K
0J
0I
0H
0G
0F
0E
0D
0C
0B
0A
0@
0P
0Q
0R
0S
0T
0U
0]!
0\!
0[!
0Z!
0Y!
0X!
0W!
0V!
0e!
0d!
0c!
0b!
0a!
0`!
0_!
0^!
0u!
0t!
0s!
0r!
0q!
0p!
0o!
0n!
0m!
0l!
0k!
0j!
0i!
0h!
0g!
0f!
0'"
0&"
0%"
0$"
0#"
0""
0!"
0~!
0}!
0|!
0{!
0z!
0y!
0x!
0w!
0v!
0N!
0M!
0L!
0K!
0J!
0I!
0H!
0G!
0F!
0E!
0D!
0C!
0B!
0A!
0@!
0?!
0>!
0=!
0<!
0;!
0:!
09!
x8!
x7!
06!
0"!
0!!
0~
0}
x|
x{
0z
0y
0x
0w
0v
0u
0t
0s
0r
0q
0p
0o
0n
0m
0l
0k
0j
0i
0h
0g
0f
$end
#5000
1#
1v
1$
1w
b0 #!
0$!
0%!
0&!
0'!
0(!
0)!
09
08
07
06
05
04
03
02
01
00
0/
0.
0-
0,
0+
0*
0:
0;
0<
0=
0>
0?
#10000
0#
0v
#15000
1#
1v
0$
1%
1x
0w
16!
1U!
1U
#20000
0#
0v
#25000
1#
1v
0%
0x
06!
0U!
0U
1)!
1?
#30000
0#
0v
#35000
1#
1v
1%
b1 !
b1 "
1&
1x
16!
1H!
1u
1@!
1m
1y
1J!
1e!
1]!
1t!
01!
11!
1U!
1U
#40000
0#
0v
#45000
1#
1v
0&
0y
0J!
0U!
1U!
01!
11!
#50000
0#
0v
#55000
1#
1v
1&
b1111 (
1y
1J!
1N!
1M!
1L!
1K!
1"!
1!!
1~
1}
0U!
1U!
01!
11!
#60000
0#
0v
#65000
1#
1v
0&
0y
0J!
0U!
1U!
01!
11!
#70000
0#
0v
#75000
1#
1v
b11 )
18!
17!
1|
1{
01!
11!
0U!
1U!
#80000
0#
0v
#85000
1#
1v
1&
b1 [
b1 \
b0 ]
b10000010100010001000100 ^
b0 (
1y
1J!
0N!
0M!
0L!
0K!
0"!
0!!
0~
0}
0U!
b10 O!
01!
b10 +!
0U
1N
#90000
0#
0v
#95000
1#
1v
b10 #!
0)!
18
0?
#100000
0#
0v
#105000
1#
1v
b1 X
1_
0a
0b
1`
1Y
b1 V
b11111111 [
b11111111 !
1?!
1>!
1=!
1<!
1;!
1:!
19!
1l
1k
1j
1i
1h
1g
1f
1\!
1[!
1Z!
1Y!
1X!
1W!
1V!
0t!
1&"
1%"
1$"
1#"
1""
1!"
1~!
1}!
1|!
1{!
1z!
1y!
1x!
1w!
1v!
b0 O!
b100000000 O!
1P!
b0 +!
b100000000 +!
1,!
0N
1G
1P
#110000
0#
0v
#115000
1#
1v
b100000000 #!
1$!
08
11
1:
#120000
0#
0v
#125000
1#
1v
b10 X
1a
1b
0a
0b
b10 V
b0 [
b0 \
b0 !
b0 "
0H!
0u
0@!
0?!
0>!
0=!
0<!
0;!
0:!
09!
0m
0l
0k
0j
0i
0h
0g
0f
0e!
0]!
0\!
0[!
0Z!
0Y!
0X!
0W!
0V!
0&"
0%"
0$"
0#"
0""
0!"
0~!
0}!
0|!
0{!
0z!
0y!
0x!
0w!
0v!
b0 O!
0P!
b0 +!
0,!
0G
0P
#130000
0#
0v
#135000
1#
1v
b0 #!
0$!
01
0:
#140000
0#
0v
#145000
1#
1v
b11 X
b11 V
b1 [
b1 \
b1 ]
b10100110101010101000010 ^
b1 !
b1 "
b1 (
1N!
1"!
1H!
1u
1@!
1m
1e!
1]!
1t!
#150000
0#
0v
#155000
1#
1v
#160000
0#
0v
#165000
1#
1v
b100 X
b100 V
b0 [
b0 !
0@!
0m
0]!
1u!
0t!
1'"
1&"
1%"
1$"
1#"
1""
1!"
1~!
1}!
1|!
1{!
1z!
1y!
1x!
1w!
1v!
1Q!
b1111111111111111 O!
b1111111111111111 +!
1-!
1Q
1O
1N
1M
1L
1K
1J
1I
1H
1G
1F
1E
1D
1C
1B
1A
1@
#170000
0#
0v
#175000
1#
1v
b1111111111111111 #!
1%!
19
18
17
16
15
14
13
12
11
10
1/
1.
1-
1,
1+
1*
1;
#180000
0#
0v
#185000
1#
1v
b101 X
1a
1b
0a
0b
b101 V
b1010000 [
b1010000 \
b1010000 !
b1010000 "
0H!
1D!
1B!
0u
1q
1o
1<!
1:!
1i
1g
0e!
1a!
1_!
1Y!
1W!
0u!
1p!
1n!
0'"
0&"
0%"
0$"
0#"
0""
0!"
0~!
0}!
0|!
0{!
0z!
0y!
0x!
0w!
0v!
b0 O!
0Q!
b0 +!
0-!
0O
0N
0M
0L
0K
0J
0I
0H
0G
0F
0E
0D
0C
0B
0A
0@
0Q
#190000
0#
0v
#195000
1#
1v
b0 #!
0%!
09
08
07
06
05
04
03
02
01
00
0/
0.
0-
0,
0+
0*
0;
#200000
0#
0v
#205000
1#
1v
b110 X
b110 V
1'
b11111111 [
b0 \
b10 ]
b1000001010001000100010001011111010000110100100101001110 ^
b11111111 !
b0 "
b10 (
1z
1I!
0N!
1M!
0"!
1!!
0D!
0B!
0q
0o
1@!
1?!
1>!
1=!
1;!
19!
1m
1l
1k
1j
1h
1f
0a!
0_!
1]!
1\!
1[!
1Z!
1X!
1V!
1u!
1t!
1s!
1r!
1q!
1o!
1m!
1l!
1k!
1j!
1i!
1h!
1g!
1f!
1'"
1&"
1%"
1$"
1#"
1""
1!"
1~!
1}!
1|!
1{!
1z!
1y!
1x!
1w!
1v!
b100000000 O!
1P!
b100000000 +!
1,!
1G
1P
#210000
0#
0v
#215000
1#
1v
b100000000 #!
1$!
11
1:
#220000
0#
0v
#225000
1#
1v
b111 X
1a
1b
0a
0b
b111 V
0'
0z
0I!
b0 O!
0P!
b11111111 O!
b0 +!
0,!
b11111111 +!
1O
1N
1M
1L
1K
1J
1I
1H
0G
0P
#230000
0#
0v
#235000
1#
1v
b11111111 #!
0$!
19
18
17
16
15
14
13
12
01
0:
#240000
0#
0v
#245000
1#
1v
b1000 X
b1000 V
1'
b1 [
b1 \
b1 !
b1 "
1z
1I!
1H!
1u
0?!
0>!
0=!
0<!
0;!
0:!
09!
0l
0k
0j
0i
0h
0g
0f
1e!
0\!
0[!
0Z!
0Y!
0X!
0W!
0V!
0u!
0s!
0r!
0q!
0p!
0o!
0n!
0m!
0l!
0k!
0j!
0i!
0h!
0g!
0f!
0'"
0&"
0%"
0$"
0#"
0""
0!"
0~!
0}!
0|!
0{!
0z!
0y!
0x!
0w!
0v!
b0 O!
b11 O!
b0 +!
b11 +!
0M
0L
0K
0J
0I
0H
#250000
0#
0v
#255000
1#
1v
b11 #!
07
06
05
04
03
02
#260000
0#
0v
#265000
1#
1v
b1001 X
b1001 V
0'
1'
b1010 [
b11 \
b11 ]
b1010011010101010100001001011111010000110100100101001110 ^
b1010 !
b11 "
b11 (
1N!
1"!
1G!
1t
0@!
1?!
1=!
0m
1l
1j
1d!
0]!
1\!
1Z!
1u!
0t!
1s!
1r!
1'"
1&"
1%"
b0 +!
b110 +!
b0 O!
b110 O!
0O
1M
#270000
0#
0v
#275000
1#
1v
b110 #!
09
17
#280000
0#
0v
#285000
1#
1v
b1010 X
b1010 V
b0 [
b0 \
b0 !
b0 "
0H!
0G!
0u
0t
0?!
0=!
0l
0j
0e!
0d!
0\!
0Z!
0u!
0s!
0r!
0'"
0&"
0%"
b0 O!
b1111111111111111 O!
b0 +!
b1111111111111111 +!
1-!
1O
1L
1K
1J
1I
1H
1G
1F
1E
1D
1C
1B
1A
1@
#290000
0#
0v
#295000
1#
1v
b1111111111111111 #!
1%!
19
16
15
14
13
12
11
10
1/
1.
1-
1,
1+
1*
1;
#300000
0#
0v
#305000
1#
1v
b1011 X
1a
0`
0_
0a
1`
0Y
b1 W
0'
b1 [
b1 \
b1 !
b1 "
0z
0I!
1H!
1u
1@!
1m
1e!
1]!
1t!
b0 O!
b0 +!
0-!
0O
0N
0M
0L
0K
0J
0I
0H
0G
0F
0E
0D
0C
0B
0A
0@
#310000
0#
0v
#315000
1#
1v
b0 #!
0%!
09
08
07
06
05
04
03
02
01
00
0/
0.
0-
0,
0+
0*
0;
#320000
0#
0v
#325000
1#
1v
b1100 X
1_
1Y
b1011 V
1'
1z
1I!
b1111111111111111 O!
b1111111111111111 +!
1-!
1O
1N
1M
1L
1K
1J
1I
1H
1G
1F
1E
1D
1C
1B
1A
1@
#330000
0#
0v
#335000
1#
1v
b1111111111111111 #!
1%!
19
18
17
16
15
14
13
12
11
10
1/
1.
1-
1,
1+
1*
1;
#340000
0#
0v
#345000
1#
1v
b1101 X
1a
0`
0_
0a
1`
0Y
b10 W
0'
b1010000 [
b0 \
b100 ]
b100100101001110010000110101111101000001 ^
b1010000 !
b0 "
b100 (
0z
0I!
0N!
0M!
1L!
0"!
0!!
1~
0H!
0u
0@!
1<!
1:!
0m
1i
1g
0e!
0]!
1Y!
1W!
0t!
1q!
1o!
1#"
1!"
b0 O!
b1010001 O!
b0 +!
0-!
b1010001 +!
0N
0M
0L
0J
0H
0G
0F
0E
0D
0C
0B
0A
0@
#350000
0#
0v
#355000
1#
1v
b1010001 #!
0%!
08
07
06
04
02
01
00
0/
0.
0-
0,
0+
0*
0;
#360000
0#
0v
#365000
1#
1v
b1110 X
1_
1Y
b1100 V
b11111111 [
b11111111 !
1@!
1?!
1>!
1=!
1;!
19!
1m
1l
1k
1j
1h
1f
1]!
1\!
1[!
1Z!
1X!
1V!
1u!
1t!
1s!
1r!
1p!
1n!
1m!
1l!
1k!
1j!
1i!
1h!
1g!
1f!
1'"
1&"
1%"
1$"
1""
1~!
1}!
1|!
1{!
1z!
1y!
1x!
1w!
1v!
b0 O!
b100000000 O!
b0 +!
b100000000 +!
0O
0K
0I
1G
#370000
0#
0v
#375000
1#
1v
b100000000 #!
09
05
03
11
#380000
0#
0v
#385000
1#
1v
b1111 X
b1101 V
b1010 [
b1010 !
0@!
0>!
0<!
0;!
0:!
09!
0m
0k
0i
0h
0g
0f
0]!
0[!
0Y!
0X!
0W!
0V!
0u!
0s!
0q!
0p!
0o!
0n!
0m!
0l!
0k!
0j!
0i!
0h!
0g!
0f!
0'"
0%"
0#"
0""
0!"
0~!
0}!
0|!
0{!
0z!
0y!
0x!
0w!
0v!
b0 O!
b1011 O!
b0 +!
b1011 +!
1O
1N
1L
0G
#390000
0#
0v
#395000
1#
1v
b1011 #!
19
18
16
01
#400000
0#
0v
#405000
1#
1v
b10000 X
b1110 V
b1001001 [
b101 ]
b100010001000101010000110101111101000001 ^
b1001001 !
b101 (
1N!
1"!
1@!
0?!
1:!
1m
0l
1g
1]!
0\!
1W!
1u!
0t!
1o!
1'"
0&"
1!"
b0 +!
b1001000 +!
b0 O!
b1001000 O!
0O
0N
1I
#410000
0#
0v
#415000
1#
1v
b1001000 #!
09
08
13
#420000
0#
0v
#425000
1#
1v
b10001 X
b1111 V
b0 [
b0 !
0@!
0=!
0:!
0m
0j
0g
0]!
0Z!
0W!
0u!
0r!
0o!
0'"
0$"
0!"
b0 O!
b1111111111111111 O!
b0 +!
b1111111111111111 +!
1O
1N
1M
1K
1J
1H
1G
1F
1E
1D
1C
1B
1A
1@
#430000
0#
0v
#435000
1#
1v
b1111111111111111 #!
19
18
17
15
14
12
11
10
1/
1.
1-
1,
1+
1*
#440000
0#
0v
#445000
1#
1v
b10010 X
b10000 V
b1010 [
b1010 !
1?!
1=!
1l
1j
1\!
1Z!
1t!
1r!
1&"
1$"
b0 O!
b1001 O!
b0 +!
b1001 +!
0N
0M
0K
0J
0I
0H
0G
0F
0E
0D
0C
0B
0A
0@
#450000
0#
0v
#455000
1#
1v
b1001 #!
08
07
05
04
03
02
01
00
0/
0.
0-
0,
0+
0*
#460000
0#
0v
#465000
1#
1v
b10011 X
b10001 V
b0 [
b1010000 \
b110 ]
b100100101001110010000110101111101000010 ^
b0 !
b1010000 "
b110 (
0N!
1M!
0"!
1!!
1D!
1B!
1q
1o
0?!
0=!
0l
0j
1a!
1_!
0\!
0Z!
0t!
0r!
1q!
1o!
0&"
0$"
1#"
1""
1~!
1}!
1|!
1{!
1z!
1y!
1x!
1w!
1v!
b0 +!
b1010001 +!
b0 O!
b1010001 O!
0L
1K
1I
#470000
0#
0v
#475000
1#
1v
b1010001 #!
06
15
13
#480000
0#
0v
#485000
1#
1v
b10100 X
b10010 V
b11111111 \
b11111111 "
1H!
1G!
1F!
1E!
1C!
1A!
1u
1t
1s
1r
1p
1n
1e!
1d!
1c!
1b!
1`!
1^!
1u!
1t!
1s!
1r!
1p!
1n!
1m!
1l!
1k!
1j!
1i!
1h!
1g!
1f!
1'"
0#"
0""
0~!
0}!
0|!
0{!
0z!
0y!
0x!
0w!
0v!
b0 O!
b100000000 O!
b0 +!
b100000000 +!
0O
0K
0I
1G
#490000
0#
0v
#495000
1#
1v
b100000000 #!
09
05
03
11
#500000
0#
0v
#505000
1#
1v
b10101 X
b10011 V
b1001001 \
b111 ]
b100010001000101010000110101111101000010 ^
b1001001 "
b111 (
1N!
1"!
0G!
0F!
0D!
0C!
0A!
0t
0s
0q
0p
0n
0d!
0c!
0a!
0`!
0^!
0t!
0s!
0q!
0p!
0n!
0m!
0l!
0k!
0j!
0i!
0h!
0g!
0f!
1&"
1%"
1#"
1""
1~!
1}!
1|!
1{!
1z!
1y!
1x!
1w!
1v!
b0 +!
b1001000 +!
b0 O!
b1001000 O!
1L
1I
0G
#510000
0#
0v
#515000
1#
1v
b1001000 #!
16
13
01
#520000
0#
0v
#525000
1#
1v
b10110 X
b10100 V
b0 \
b0 "
0H!
0E!
0B!
0u
0r
0o
0e!
0b!
0_!
0u!
0r!
0o!
0'"
0&"
0%"
0#"
0""
0~!
0}!
0|!
0{!
0z!
0y!
0x!
0w!
0v!
b0 O!
b1111111111111111 O!
b0 +!
b1111111111111111 +!
1O
1N
1M
1K
1J
1H
1G
1F
1E
1D
1C
1B
1A
1@
#530000
0#
0v
#535000
1#
1v
b1111111111111111 #!
19
18
17
15
14
12
11
10
1/
1.
1-
1,
1+
1*
#540000
0#
0v
#545000
1#
1v
b10111 X
b10101 V
b11001000 [
b1100100 \
b1000 ]
b100001101001101010100000010000000101000011001010111000101110101011000010110110000101001 ^
b11001000 !
b1100100 "
b1000 (
0N!
0M!
0L!
1K!
0"!
0!!
0~
1}
1F!
1C!
1B!
1s
1p
1o
1=!
1:!
19!
1j
1g
1f
1c!
1`!
1_!
1Z!
1W!
1V!
1s!
1r!
1p!
1%"
1""
1!"
1}!
1|!
1{!
1z!
1y!
1x!
1w!
1v!
b0 +!
1.!
b0 O!
1R!
0O
0N
0M
0L
0K
0J
0I
0H
0G
0F
0E
0D
0C
0B
0A
0@
1R
#550000
0#
0v
#555000
1#
1v
b0 #!
1&!
09
08
07
06
05
04
03
02
01
00
0/
0.
0-
0,
0+
0*
1<
#560000
0#
0v
#565000
1#
1v
b11000 X
1a
1b
0a
0b
b10110 V
b110010 [
b11001000 \
b1000011010011010101000000100000001010000110011101110010011001010110000101110100011001010111001000101001 ^
b110010 !
b11001000 "
0F!
1E!
0C!
1A!
0s
1r
0p
1n
1?!
0=!
1<!
1;!
0:!
09!
1l
0j
1i
1h
0g
0f
0c!
1b!
0`!
1^!
1\!
0Z!
1Y!
1X!
0W!
0V!
1t!
0s!
1q!
1o!
1n!
1m!
1l!
1k!
1j!
1i!
1h!
1g!
1f!
1&"
0%"
1$"
0}!
0|!
0{!
0z!
0y!
0x!
0w!
0v!
0R!
1T!
0.!
10!
0R
1T
#570000
0#
0v
#575000
1#
1v
0&!
1(!
0<
1>
#580000
0#
0v
#585000
1#
1v
b11001 X
1a
1b
0a
0b
b10111 V
b10000000 [
b10000000 \
b1000011010011010101000000100000001010000110110001100101011100110111001100101001 ^
b10000000 !
b10000000 "
0E!
0B!
0r
0o
0?!
0<!
0;!
19!
0l
0i
0h
1f
0b!
0_!
0\!
0Y!
0X!
1V!
0t!
0r!
0q!
0p!
0o!
0n!
0&"
0$"
0""
0!"
0T!
1S!
00!
1/!
0T
1S
#590000
0#
0v
#595000
1#
1v
1'!
0(!
1=
0>
#600000
0#
0v
#605000
1#
1v
b11010 X
1a
1b
0a
0b
b11000 V
b11111110 [
b11111110 \
b1001 ]
b10011010101010101001100010111110100000101000010 ^
b11111110 !
b11111110 "
b1001 (
1N!
1"!
1G!
1F!
1E!
1D!
1C!
1B!
1t
1s
1r
1q
1p
1o
1?!
1>!
1=!
1<!
1;!
1:!
1l
1k
1j
1i
1h
1g
1d!
1c!
1b!
1a!
1`!
1_!
1\!
1[!
1Z!
1Y!
1X!
1W!
1s!
1r!
1q!
1p!
1o!
1n!
0/!
b1111111000000001 +!
0S!
b1111111000000001 O!
0S
1O
1F
1E
1D
1C
1B
1A
1@
#610000
0#
0v
#615000
1#
1v
b10 4!
#620000
0#
0v
#625000
1#
1v
b11011 X
1Z
bx #!
b11 4!
x9
x8
x7
x6
x5
x4
x3
x2
x1
x0
x/
x.
x-
x,
x+
x*
#630000
0#
0v
#635000
1#
1v
0_
b1 4!
b1111111000000001 #!
19
08
07
06
05
04
03
02
01
10
1/
1.
1-
1,
1+
1*
#640000
0#
0v
#645000
1#
1v
1a
0`
0a
1`
0Y
b11 W
b11111111 [
b11111111 \
b11111111 !
b11111111 "
1H!
1u
1@!
1m
1e!
1]!
1t!
b0 O!
b0 +!
0O
0F
0E
0D
0C
0B
0A
0@
b10 4!
#650000
0#
0v
#655000
1#
1v
b11 4!
bx #!
x9
x8
x7
x6
x5
x4
x3
x2
x1
x0
x/
x.
x-
x,
x+
x*
#660000
0#
0v
#665000
1#
1v
b11100 X
1_
b0 #!
b1 4!
09
08
07
06
05
04
03
02
01
00
0/
0.
0-
0,
0+
0*
#670000
0#
0v
#675000
1#
1v
0_
b10 4!
#680000
0#
0v
#685000
1#
1v
1a
0`
0a
1`
b100 W
b11111110 [
b11111110 \
b11111110 !
b11111110 "
0H!
0u
0@!
0m
0e!
0]!
0t!
b1111111000000001 O!
b1111111000000001 +!
1O
1F
1E
1D
1C
1B
1A
1@
bx #!
b11 4!
x9
x8
x7
x6
x5
x4
x3
x2
x1
x0
x/
x.
x-
x,
x+
x*
#690000
0#
0v
#695000
1#
1v
b1 4!
b1111111000000001 #!
19
08
07
06
05
04
03
02
01
10
1/
1.
1-
1,
1+
1*
#700000
0#
0v
#705000
1#
1v
b11101 X
1_
b10 4!
#710000
0#
0v
#715000
1#
1v
0_
bx #!
b11 4!
x9
x8
x7
x6
x5
x4
x3
x2
x1
x0
x/
x.
x-
x,
x+
x*
#720000
0#
0v
#725000
1#
1v
1a
0`
0a
1`
b101 W
b11 [
b100 \
b11 !
b100 "
0G!
0E!
0D!
0C!
0B!
0A!
0t
0r
0q
0p
0o
0n
1@!
0>!
0=!
0<!
0;!
0:!
09!
1m
0k
0j
0i
0h
0g
0f
0d!
0b!
0a!
0`!
0_!
0^!
1]!
0[!
0Z!
0Y!
0X!
0W!
0V!
1u!
1t!
0r!
0q!
0p!
0o!
0n!
0m!
0l!
0k!
0j!
0i!
0h!
0g!
0f!
1'"
1&"
1%"
1$"
1#"
1""
1!"
1~!
1}!
1|!
1{!
1z!
1y!
1x!
1w!
1v!
b0 O!
b10100 O!
b0 +!
b10100 +!
0O
1M
1K
0F
0E
0D
0C
0B
0A
0@
b1 4!
b1111111000000001 #!
19
08
07
06
05
04
03
02
01
10
1/
1.
1-
1,
1+
1*
#730000
0#
0v
#735000
1#
1v
b10 4!
#740000
0#
0v
#745000
1#
1v
b11110 X
1_
bx #!
b11 4!
x9
x8
x7
x6
x5
x4
x3
x2
x1
x0
x/
x.
x-
x,
x+
x*
#750000
0#
0v
#755000
1#
1v
0_
b1 4!
b10100 #!
09
08
17
06
15
04
03
02
01
00
0/
0.
0-
0,
0+
0*
#760000
0#
0v
#765000
1#
1v
1a
0`
0a
1`
b110 W
b0 [
b101 \
b0 !
b101 "
1H!
1u
0@!
0?!
0m
0l
1e!
0]!
0\!
0t!
0%"
b0 O!
b110 O!
b0 +!
b110 +!
1N
0K
b10 4!
#770000
0#
0v
#775000
1#
1v
b11 4!
bx #!
x9
x8
x7
x6
x5
x4
x3
x2
x1
x0
x/
x.
x-
x,
x+
x*
#780000
0#
0v
#785000
1#
1v
b11111 X
1_
b110 #!
b1 4!
09
18
17
06
05
04
03
02
01
00
0/
0.
0-
0,
0+
0*
#790000
0#
0v
#795000
1#
1v
0_
b10 4!
#800000
0#
0v
#805000
1#
1v
1a
0`
0a
1`
b111 W
b11111111 [
b11111111 \
b11111111 !
b11111111 "
1G!
1E!
1D!
1C!
1B!
1A!
1t
1r
1q
1p
1o
1n
1@!
1?!
1>!
1=!
1<!
1;!
1:!
19!
1m
1l
1k
1j
1i
1h
1g
1f
1d!
1b!
1a!
1`!
1_!
1^!
1]!
1\!
1[!
1Z!
1Y!
1X!
1W!
1V!
0u!
1t!
1r!
1q!
1p!
1o!
1n!
1m!
1l!
1k!
1j!
1i!
1h!
1g!
1f!
0'"
0&"
0$"
0#"
0""
0!"
0~!
0}!
0|!
0{!
0z!
0y!
0x!
0w!
0v!
b0 O!
b0 +!
0N
0M
bx #!
b11 4!
x9
x8
x7
x6
x5
x4
x3
x2
x1
x0
x/
x.
x-
x,
x+
x*
#810000
0#
0v
#815000
1#
1v
b1 4!
b0 #!
09
08
07
06
05
04
03
02
01
00
0/
0.
0-
0,
0+
0*
#820000
0#
0v
#825000
1#
1v
b100000 X
1_
b10 4!
#830000
0#
0v
#835000
1#
1v
0_
bx #!
b11 4!
x9
x8
x7
x6
x5
x4
x3
x2
x1
x0
x/
x.
x-
x,
x+
x*
#840000
0#
0v
