src/test_bench/alu_test.vcd
$date
	Mon May 11 10:42:13 2026
$end
$version
	QuestaSim Version 10.6c
$end
$timescale
	1ps
$end

$scope module alu_testbench $end
$var reg 8 ! OPA [7:0] $end
$var reg 8 " OPB [7:0] $end
$var reg 1 # CLK $end
$var reg 1 $ RST $end
$var reg 1 % CE $end
$var reg 1 & MODE $end
$var reg 1 ' CIN $end
$var reg 4 ( CMD [3:0] $end
$var reg 2 ) INP_VALID [1:0] $end
$var wire 1 * RES_dut [15] $end
$var wire 1 + RES_dut [14] $end
$var wire 1 , RES_dut [13] $end
$var wire 1 - RES_dut [12] $end
$var wire 1 . RES_dut [11] $end
$var wire 1 / RES_dut [10] $end
$var wire 1 0 RES_dut [9] $end
$var wire 1 1 RES_dut [8] $end
$var wire 1 2 RES_dut [7] $end
$var wire 1 3 RES_dut [6] $end
$var wire 1 4 RES_dut [5] $end
$var wire 1 5 RES_dut [4] $end
$var wire 1 6 RES_dut [3] $end
$var wire 1 7 RES_dut [2] $end
$var wire 1 8 RES_dut [1] $end
$var wire 1 9 RES_dut [0] $end
$var wire 1 : COUT_dut $end
$var wire 1 ; OFLOW_dut $end
$var wire 1 < G_dut $end
$var wire 1 = E_dut $end
$var wire 1 > L_dut $end
$var wire 1 ? ERR_dut $end
$var wire 1 @ RES_ref [8] $end
$var wire 1 A RES_ref [7] $end
$var wire 1 B RES_ref [6] $end
$var wire 1 C RES_ref [5] $end
$var wire 1 D RES_ref [4] $end
$var wire 1 E RES_ref [3] $end
$var wire 1 F RES_ref [2] $end
$var wire 1 G RES_ref [1] $end
$var wire 1 H RES_ref [0] $end
$var wire 1 I COUT_ref $end
$var wire 1 J OFLOW_ref $end
$var wire 1 K G_ref $end
$var wire 1 L E_ref $end
$var wire 1 M L_ref $end
$var wire 1 N ERR_ref $end
$var integer 32 O pass_count $end
$var integer 32 P fail_count $end
$var integer 32 Q test_count $end
$var reg 1 R cmp $end

$scope task test_arithmetic $end
$upscope $end

$scope task test_logical $end
$upscope $end

$scope task apply_test $end
$var reg 8 S a [7:0] $end
$var reg 8 T b [7:0] $end
$var reg 4 U cmd [3:0] $end
$var reg 640 V test_name [640:1] $end
$upscope $end

$scope task compare_outputs $end
$var reg 1 W compare__outputs $end
$upscope $end

$scope function compare_bit $end
$var reg 1 X compare_bit $end
$var reg 1 Y dut $end
$var reg 1 Z ref $end
$upscope $end

$scope task display_mismatch $end
$upscope $end

$scope module dut $end
$var parameter 32 [ width $end
$var parameter 32 \ cmd_width $end
$var parameter 32 ] out_width $end
$var wire 1 ^ OPA [7] $end
$var wire 1 _ OPA [6] $end
$var wire 1 ` OPA [5] $end
$var wire 1 a OPA [4] $end
$var wire 1 b OPA [3] $end
$var wire 1 c OPA [2] $end
$var wire 1 d OPA [1] $end
$var wire 1 e OPA [0] $end
$var wire 1 f OPB [7] $end
$var wire 1 g OPB [6] $end
$var wire 1 h OPB [5] $end
$var wire 1 i OPB [4] $end
$var wire 1 j OPB [3] $end
$var wire 1 k OPB [2] $end
$var wire 1 l OPB [1] $end
$var wire 1 m OPB [0] $end
$var wire 1 n CLK $end
$var wire 1 o RST $end
$var wire 1 p CE $end
$var wire 1 q MODE $end
$var wire 1 r CIN $end
$var wire 1 s inp_valid [1] $end
$var wire 1 t inp_valid [0] $end
$var wire 1 u CMD [3] $end
$var wire 1 v CMD [2] $end
$var wire 1 w CMD [1] $end
$var wire 1 x CMD [0] $end
$var reg 16 y RES [15:0] $end
$var reg 1 z COUT $end
$var reg 1 { OFLOW $end
$var reg 1 | G $end
$var reg 1 } E $end
$var reg 1 ~ L $end
$var reg 1 !! ERR $end
$var reg 16 "! temp_signed [15:0] $end
$var reg 16 #! temp_res [15:0] $end
$var reg 1 $! temp_cout $end
$var reg 1 %! temp_oflow $end
$var reg 1 &! temp_g $end
$var reg 1 '! temp_e $end
$var reg 1 (! temp_l $end
$var reg 1 )! temp_err $end
$var reg 8 *! A_signed [7:0] $end
$var reg 8 +! B_signed [7:0] $end
$var integer 32 ,! count $end
$var integer 32 -! count1 $end
$upscope $end

$scope module ref $end
$var wire 1 .! CE $end
$var wire 1 /! INP_VALID [1] $end
$var wire 1 0! INP_VALID [0] $end
$var wire 1 1! OPA [7] $end
$var wire 1 2! OPA [6] $end
$var wire 1 3! OPA [5] $end
$var wire 1 4! OPA [4] $end
$var wire 1 5! OPA [3] $end
$var wire 1 6! OPA [2] $end
$var wire 1 7! OPA [1] $end
$var wire 1 8! OPA [0] $end
$var wire 1 9! OPB [7] $end
$var wire 1 :! OPB [6] $end
$var wire 1 ;! OPB [5] $end
$var wire 1 <! OPB [4] $end
$var wire 1 =! OPB [3] $end
$var wire 1 >! OPB [2] $end
$var wire 1 ?! OPB [1] $end
$var wire 1 @! OPB [0] $end
$var wire 1 A! CIN $end
$var wire 1 B! MODE $end
$var wire 1 C! CMD [3] $end
$var wire 1 D! CMD [2] $end
$var wire 1 E! CMD [1] $end
$var wire 1 F! CMD [0] $end
$var reg 17 G! RES [16:0] $end
$var reg 1 H! COUT $end
$var reg 1 I! OFLOW $end
$var reg 1 J! G $end
$var reg 1 K! E $end
$var reg 1 L! L $end
$var reg 1 M! ERR $end
$var wire 1 N! sOPA [7] $end
$var wire 1 O! sOPA [6] $end
$var wire 1 P! sOPA [5] $end
$var wire 1 Q! sOPA [4] $end
$var wire 1 R! sOPA [3] $end
$var wire 1 S! sOPA [2] $end
$var wire 1 T! sOPA [1] $end
$var wire 1 U! sOPA [0] $end
$var wire 1 V! sOPB [7] $end
$var wire 1 W! sOPB [6] $end
$var wire 1 X! sOPB [5] $end
$var wire 1 Y! sOPB [4] $end
$var wire 1 Z! sOPB [3] $end
$var wire 1 [! sOPB [2] $end
$var wire 1 \! sOPB [1] $end
$var wire 1 ]! sOPB [0] $end
$var wire 1 ^! s_add [7] $end
$var wire 1 _! s_add [6] $end
$var wire 1 `! s_add [5] $end
$var wire 1 a! s_add [4] $end
$var wire 1 b! s_add [3] $end
$var wire 1 c! s_add [2] $end
$var wire 1 d! s_add [1] $end
$var wire 1 e! s_add [0] $end
$var wire 1 f! s_sub [7] $end
$var wire 1 g! s_sub [6] $end
$var wire 1 h! s_sub [5] $end
$var wire 1 i! s_sub [4] $end
$var wire 1 j! s_sub [3] $end
$var wire 1 k! s_sub [2] $end
$var wire 1 l! s_sub [1] $end
$var wire 1 m! s_sub [0] $end
$upscope $end
$upscope $end
$enddefinitions $end
#0
$dumpvars
b0 !
b0 "
0#
0$
0%
0&
0'
b0 (
bx )
xR
bx y
xz
x{
x|
x}
x~
x!!
b0 "!
b0 #!
0$!
0%!
0&!
0'!
0(!
1)!
b0 *!
b0 +!
b0 G!
0H!
0I!
0J!
0K!
0L!
0M!
bx S
bx T
bx U
bx V
xW
xX
xY
xZ
b1000 [
b100 \
b10000 ]
b0 O
b0 P
b0 Q
b1 ,!
b1 -!
x9
x8
x7
x6
x5
x4
x3
x2
x1
x0
x/
x.
x-
x,
x+
x*
x:
x;
x<
x=
x>
x?
0H
0G
0F
0E
0D
0C
0B
0A
0@
0I
0J
0K
0L
0M
0N
0U!
0T!
0S!
0R!
0Q!
0P!
0O!
0N!
0]!
0\!
0[!
0Z!
0Y!
0X!
0W!
0V!
0e!
0d!
0c!
0b!
0a!
0`!
0_!
0^!
0m!
0l!
0k!
0j!
0i!
0h!
0g!
0f!
0F!
0E!
0D!
0C!
0B!
0A!
0@!
0?!
0>!
0=!
0<!
0;!
0:!
09!
08!
07!
06!
05!
04!
03!
02!
01!
x0!
x/!
0.!
0x
0w
0v
0u
xt
xs
0r
0q
0p
0o
0n
0m
0l
0k
0j
0i
0h
0g
0f
0e
0d
0c
0b
0a
0`
0_
0^
$end
#5000
1#
1n
1$
1o
b0 y
0z
0{
0|
0}
0~
0!!
09
08
07
06
05
04
03
02
01
00
0/
0.
0-
0,
0+
0*
0:
0;
0<
0=
0>
0?
#10000
0#
0n
#15000
1#
1n
0$
1%
1p
0o
1.!
1M!
1N
#20000
0#
0n
#25000
1#
1n
0%
0p
0.!
0M!
0N
1!!
1?
#30000
0#
0n
#35000
1#
1n
1%
b1 !
b1 "
1&
1p
1.!
1@!
1m
18!
1e
1q
1B!
1]!
1U!
1d!
0)!
1)!
1M!
1N
#40000
0#
0n
#45000
1#
1n
0&
0q
0B!
0M!
1M!
0)!
1)!
#50000
0#
0n
#55000
1#
1n
1&
b1111 (
1q
1B!
1F!
1E!
1D!
1C!
1x
1w
1v
1u
0M!
1M!
0)!
1)!
#60000
0#
0n
#65000
1#
1n
0&
0q
0B!
0M!
1M!
0)!
1)!
#70000
0#
0n
#75000
1#
1n
b11 )
10!
1/!
1t
1s
0)!
1)!
0M!
1M!
#80000
0#
0n
#85000
1#
1n
1&
b1 S
b1 T
b0 U
b10000010100010001000100 V
b0 (
1q
1B!
0F!
0E!
0D!
0C!
0x
0w
0v
0u
0M!
b10 G!
0)!
b10 #!
0N
1G
#90000
0#
0n
#95000
1#
1n
b10 y
0!!
18
0?
#100000
0#
0n
#105000
1#
1n
b1 Q
1W
0Y
0Z
1X
1R
b1 O
b11111111 S
b11111111 !
17!
16!
15!
14!
13!
12!
11!
1d
1c
1b
1a
1`
1_
1^
1T!
1S!
1R!
1Q!
1P!
1O!
1N!
0d!
1l!
1k!
1j!
1i!
1h!
1g!
1f!
b0 G!
b100000000 G!
1H!
b0 #!
b100000000 #!
1$!
0G
1@
1I
#110000
0#
0n
#115000
1#
1n
b100000000 y
1z
08
11
1:
#120000
0#
0n
#125000
1#
1n
b10 Q
1Y
1Z
0Y
0Z
b10 O
b0 S
b0 T
b0 !
b0 "
0@!
0m
08!
07!
06!
05!
04!
03!
02!
01!
0e
0d
0c
0b
0a
0`
0_
0^
0]!
0U!
0T!
0S!
0R!
0Q!
0P!
0O!
0N!
0l!
0k!
0j!
0i!
0h!
0g!
0f!
b0 G!
0H!
b0 #!
0$!
0@
0I
#130000
0#
0n
#135000
1#
1n
b0 y
0z
01
0:
#140000
0#
0n
#145000
1#
1n
b11 Q
b11 O
b1 S
b1 T
b1 U
b10100110101010101000010 V
b1 !
b1 "
b1 (
1F!
1x
1@!
1m
18!
1e
1]!
1U!
1d!
#150000
0#
0n
#155000
1#
1n
#160000
0#
0n
#165000
1#
1n
b100 Q
b100 O
b0 S
b0 !
08!
0e
0U!
1e!
0d!
1m!
1l!
1k!
1j!
1i!
1h!
1g!
1f!
1I!
b11111111111111111 G!
b1111111111111111 #!
1%!
1J
1H
1G
1F
1E
1D
1C
1B
1A
1@
#170000
0#
0n
#175000
1#
1n
b1111111111111111 y
1{
19
18
17
16
15
14
13
12
11
10
1/
1.
1-
1,
1+
1*
1;
#180000
0#
0n
#185000
1#
1n
b101 Q
0W
1Y
1Z
0Y
0Z
0R
b1 P
b1010000 S
b1010000 T
b1010000 !
b1010000 "
0@!
1<!
1:!
0m
1i
1g
14!
12!
1a
1_
0]!
1Y!
1W!
1Q!
1O!
0e!
1`!
1^!
0m!
0l!
0k!
0j!
0i!
0h!
0g!
0f!
b0 G!
0I!
b0 #!
0%!
0H
0G
0F
0E
0D
0C
0B
0A
0@
0J
#190000
0#
0n
#195000
1#
1n
b0 y
0{
09
08
07
06
05
04
03
02
01
00
0/
0.
0-
0,
0+
0*
0;
#200000
0#
0n
#205000
1#
1n
b110 Q
1W
1R
b101 O
1'
b11111111 S
b0 T
b10 U
b1000001010001000100010001011111010000110100100101001110 V
b11111111 !
b0 "
b10 (
1r
1A!
0F!
1E!
0x
1w
0<!
0:!
0i
0g
18!
17!
16!
15!
13!
11!
1e
1d
1c
1b
1`
1^
0Y!
0W!
1U!
1T!
1S!
1R!
1P!
1N!
1e!
1d!
1c!
1b!
1a!
1_!
1m!
1l!
1k!
1j!
1i!
1h!
1g!
1f!
b100000000 G!
1H!
b100000000 #!
1$!
1@
1I
#210000
0#
0n
#215000
1#
1n
b100000000 y
1z
11
1:
#220000
0#
0n
#225000
1#
1n
b111 Q
1Y
1Z
0Y
0Z
b110 O
0'
0r
0A!
b0 G!
0H!
b11111111 G!
b0 #!
0$!
b11111111 #!
1H
1G
1F
1E
1D
1C
1B
1A
0@
0I
#230000
0#
0n
#235000
1#
1n
b11111111 y
0z
19
18
17
16
15
14
13
12
01
0:
#240000
0#
0n
#245000
1#
1n
b1000 Q
b111 O
1'
b1 S
b1 T
b1 !
b1 "
1r
1A!
1@!
1m
07!
06!
05!
04!
03!
02!
01!
0d
0c
0b
0a
0`
0_
0^
1]!
0T!
0S!
0R!
0Q!
0P!
0O!
0N!
0e!
0c!
0b!
0a!
0`!
0_!
0^!
0m!
0l!
0k!
0j!
0i!
0h!
0g!
0f!
b0 G!
b11 G!
b0 #!
b11 #!
0F
0E
0D
0C
0B
0A
#250000
0#
0n
#255000
1#
1n
b11 y
07
06
05
04
03
02
#260000
0#
0n
#265000
1#
1n
b1001 Q
b1000 O
0'
1'
b1010 S
b11 T
b11 U
b1010011010101010100001001011111010000110100100101001110 V
b1010 !
b11 "
b11 (
1F!
1x
1?!
1l
08!
17!
15!
0e
1d
1b
1\!
0U!
1T!
1R!
1e!
0d!
1c!
1b!
1m!
1l!
1k!
b0 #!
b110 #!
b0 G!
b110 G!
0H
1F
#270000
0#
0n
#275000
1#
1n
b110 y
09
17
#280000
0#
0n
#285000
1#
1n
b1010 Q
b1001 O
b0 S
b0 T
b0 !
b0 "
0@!
0?!
0m
0l
07!
05!
0d
0b
0]!
0\!
0T!
0R!
0e!
0c!
0b!
0m!
0l!
0k!
b0 G!
b11111111111111111 G!
b0 #!
b1111111111111111 #!
1%!
1H
1E
1D
1C
1B
1A
1@
#290000
0#
0n
#295000
1#
1n
b1111111111111111 y
1{
19
16
15
14
13
12
11
10
1/
1.
1-
1,
1+
1*
1;
#300000
0#
0n
#305000
1#
1n
b1011 Q
0W
1Y
0X
0Y
1X
0R
b10 P
0'
b1 S
b1 T
b1 !
b1 "
0r
0A!
1@!
1m
18!
1e
1]!
1U!
1d!
b0 G!
b0 #!
0%!
0H
0G
0F
0E
0D
0C
0B
0A
0@
#310000
0#
0n
#315000
1#
1n
b0 y
0{
09
08
07
06
05
04
03
02
01
00
0/
0.
0-
0,
0+
0*
0;
#320000
0#
0n
#325000
1#
1n
b1100 Q
1W
1R
b1010 O
1'
1r
1A!
b11111111111111111 G!
b1111111111111111 #!
1%!
1H
1G
1F
1E
1D
1C
1B
1A
1@
#330000
0#
0n
#335000
1#
1n
b1111111111111111 y
1{
19
18
17
16
15
14
13
12
11
10
1/
1.
1-
1,
1+
1*
1;
#340000
0#
0n
#345000
1#
1n
b1101 Q
0W
1Y
0X
0Y
1X
0R
b11 P
0'
b1010000 S
b0 T
b100 U
b100100101001110010000110101111101000001 V
b1010000 !
b0 "
b100 (
0r
0A!
0F!
0E!
1D!
0x
0w
1v
0@!
0m
08!
14!
12!
0e
1a
1_
0]!
0U!
1Q!
1O!
0d!
1a!
1_!
1i!
1g!
b0 G!
b1010001 G!
b0 #!
0%!
b1010001 #!
0G
0F
0E
0C
0A
0@
#350000
0#
0n
#355000
1#
1n
b1010001 y
0{
08
07
06
04
02
01
00
0/
0.
0-
0,
0+
0*
0;
#360000
0#
0n
#365000
1#
1n
b1110 Q
1W
1R
b1011 O
b11111111 S
b11111111 !
18!
17!
16!
15!
13!
11!
1e
1d
1c
1b
1`
1^
1U!
1T!
1S!
1R!
1P!
1N!
1e!
1d!
1c!
1b!
1`!
1^!
1m!
1l!
1k!
1j!
1h!
1f!
b0 G!
b100000000 G!
b0 #!
b100000000 #!
0H
0D
0B
1@
#370000
0#
0n
#375000
1#
1n
b100000000 y
09
05
03
11
#380000
0#
0n
#385000
1#
1n
b1111 Q
b1100 O
b1010 S
b1010 !
08!
06!
04!
03!
02!
01!
0e
0c
0a
0`
0_
0^
0U!
0S!
0Q!
0P!
0O!
0N!
0e!
0c!
0a!
0`!
0_!
0^!
0m!
0k!
0i!
0h!
0g!
0f!
b0 G!
b1011 G!
b0 #!
b1011 #!
1H
1G
1E
0@
#390000
0#
0n
#395000
1#
1n
b1011 y
19
18
16
01
#400000
0#
0n
#405000
1#
1n
b10000 Q
b1101 O
b1001001 S
b101 U
b100010001000101010000110101111101000001 V
b1001001 !
b101 (
1F!
1x
18!
07!
12!
1e
0d
1_
1U!
0T!
1O!
1e!
0d!
1_!
1m!
0l!
1g!
b0 #!
b1001000 #!
b0 G!
b1001000 G!
0H
0G
1B
#410000
0#
0n
#415000
1#
1n
b1001000 y
09
08
13
#420000
0#
0n
#425000
1#
1n
b10001 Q
b1110 O
b0 S
b0 !
08!
05!
02!
0e
0b
0_
0U!
0R!
0O!
0e!
0b!
0_!
0m!
0j!
0g!
b0 G!
b11111111111111111 G!
b0 #!
b1111111111111111 #!
1H
1G
1F
1D
1C
1A
1@
#430000
0#
0n
#435000
1#
1n
b1111111111111111 y
19
18
17
15
14
12
11
10
1/
1.
1-
1,
1+
1*
#440000
0#
0n
#445000
1#
1n
b10010 Q
0W
0R
b100 P
b1010 S
b1010 !
17!
15!
1d
1b
1T!
1R!
1d!
1b!
1l!
1j!
b0 G!
b1001 G!
b0 #!
b1001 #!
0G
0F
0D
0C
0B
0A
0@
#450000
0#
0n
#455000
1#
1n
b1001 y
08
07
05
04
03
02
01
00
0/
0.
0-
0,
0+
0*
#460000
0#
0n
#465000
1#
1n
b10011 Q
1W
1R
b1111 O
b0 S
b1010000 T
b110 U
b100100101001110010000110101111101000010 V
b0 !
b1010000 "
b110 (
0F!
1E!
0x
1w
1<!
1:!
1i
1g
07!
05!
0d
0b
1Y!
1W!
0T!
0R!
0d!
0b!
1a!
1_!
0l!
0j!
1i!
1h!
1f!
b0 #!
b1010001 #!
b0 G!
b1010001 G!
0E
1D
1B
#470000
0#
0n
#475000
1#
1n
b1010001 y
06
15
13
#480000
0#
0n
#485000
1#
1n
b10100 Q
b10000 O
b11111111 T
b11111111 "
1@!
1?!
1>!
1=!
1;!
19!
1m
1l
1k
1j
1h
1f
1]!
1\!
1[!
1Z!
1X!
1V!
1e!
1d!
1c!
1b!
1`!
1^!
1m!
0i!
0h!
0f!
b0 G!
b100000000 G!
b0 #!
b100000000 #!
0H
0D
0B
1@
#490000
0#
0n
#495000
1#
1n
b100000000 y
09
05
03
11
#500000
0#
0n
#505000
1#
1n
b10101 Q
b10001 O
b1001001 T
b111 U
b100010001000101010000110101111101000010 V
b1001001 "
b111 (
1F!
1x
0?!
0>!
0<!
0;!
09!
0l
0k
0i
0h
0f
0\!
0[!
0Y!
0X!
0V!
0d!
0c!
0a!
0`!
0^!
1l!
1k!
1i!
1h!
1f!
b0 #!
b1001000 #!
b0 G!
b1001000 G!
1E
1B
0@
#510000
0#
0n
#515000
1#
1n
b1001000 y
16
13
01
#520000
0#
0n
#525000
1#
1n
b10110 Q
b10010 O
b0 T
b0 "
0@!
0=!
0:!
0m
0j
0g
0]!
0Z!
0W!
0e!
0b!
0_!
0m!
0l!
0k!
0i!
0h!
0f!
b0 G!
b11111111111111111 G!
b0 #!
b1111111111111111 #!
1H
1G
1F
1D
1C
1A
1@
#530000
0#
0n
#535000
1#
1n
b1111111111111111 y
19
18
17
15
14
12
11
10
1/
1.
1-
1,
1+
1*
#540000
0#
0n
#545000
1#
1n
b10111 Q
0W
0R
b101 P
b11001000 S
b1100100 T
b1000 U
b100001101001101010100000010000000101000011001010111000101110101011000010110110000101001 V
b11001000 !
b1100100 "
b1000 (
0F!
0E!
0D!
1C!
0x
0w
0v
1u
1>!
1;!
1:!
1k
1h
1g
15!
12!
11!
1b
1_
1^
1[!
1X!
1W!
1R!
1O!
1N!
1c!
1b!
1`!
1k!
1h!
1g!
b0 #!
1&!
b0 G!
1J!
0H
0G
0F
0E
0D
0C
0B
0A
0@
1K
#550000
0#
0n
#555000
1#
1n
b0 y
1|
09
08
07
06
05
04
03
02
01
00
0/
0.
0-
0,
0+
0*
1<
#560000
0#
0n
#565000
1#
1n
b11000 Q
1W
1Y
1Z
0Y
0Z
1R
b10011 O
b110010 S
b11001000 T
b1000011010011010101000000100000001010000110011101110010011001010110000101110100011001010111001000101001 V
b110010 !
b11001000 "
0>!
1=!
0;!
19!
0k
1j
0h
1f
17!
05!
14!
13!
02!
01!
1d
0b
1a
1`
0_
0^
0[!
1Z!
0X!
1V!
1T!
0R!
1Q!
1P!
0O!
0N!
1d!
0c!
1a!
1_!
1^!
1l!
0k!
1j!
0J!
1L!
0&!
1(!
0K
1M
#570000
0#
0n
#575000
1#
1n
0|
1~
0<
1>
#580000
0#
0n
#585000
1#
1n
b11001 Q
1Y
1Z
0Y
0Z
b10100 O
b10000000 S
b10000000 T
b1000011010011010101000000100000001010000110110001100101011100110111001100101001 V
b10000000 !
b10000000 "
0=!
0:!
0j
0g
07!
04!
03!
11!
0d
0a
0`
1^
0Z!
0W!
0T!
0Q!
0P!
1N!
0d!
0b!
0a!
0`!
0_!
0^!
0l!
0j!
0h!
0g!
0L!
1K!
0(!
1'!
0M
1L
#590000
0#
0n
#595000
1#
1n
1}
0~
1=
0>
#600000
0#
0n
#605000
1#
1n
b11010 Q
1Y
1Z
0Y
0Z
b10101 O
b11111110 S
b11111110 T
b1001 U
b10011010101010101001100010111110100000101000010 V
b11111110 !
b11111110 "
b1001 (
1F!
1x
1?!
1>!
1=!
1<!
1;!
1:!
1l
1k
1j
1i
1h
1g
17!
16!
15!
14!
13!
12!
1d
1c
1b
1a
1`
1_
1\!
1[!
1Z!
1Y!
1X!
1W!
1T!
1S!
1R!
1Q!
1P!
1O!
1c!
1b!
1a!
1`!
1_!
1^!
0'!
b1111111000000001 #!
0K!
b1111111000000001 G!
0L
1H
#610000
0#
0n
#615000
1#
1n
b10 ,!
#620000
0#
0n
#625000
1#
1n
b11011 Q
bx y
b11 ,!
x9
x8
x7
x6
x5
x4
x3
x2
x1
x0
x/
x.
x-
x,
x+
x*
#630000
0#
0n
#635000
1#
1n
b1 ,!
b1111111000000001 y
19
08
07
06
05
04
03
02
01
10
1/
1.
1-
1,
1+
1*
#640000
0#
0n
#645000
1#
1n
b10 ,!
#650000
0#
0n
#655000
1#
1n
0W
bx y
b11 ,!
x9
x8
x7
x6
x5
x4
x3
x2
x1
x0
x/
x.
x-
x,
x+
x*
#660000
0#
0n
#665000
1#
1n
1Y
0X
0Y
1X
0R
b110 P
b11111111 S
b11111111 T
b11111111 !
b11111111 "
1@!
1m
18!
1e
1]!
1U!
1d!
b0 G!
b10000000000000000 G!
b0 #!
0H
b1 ,!
b1111111000000001 y
19
08
07
06
05
04
03
02
01
10
1/
1.
1-
1,
1+
1*
#670000
0#
0n
#675000
1#
1n
b10 ,!
#680000
0#
0n
#685000
1#
1n
b11100 Q
1W
bx y
b11 ,!
x9
x8
x7
x6
x5
x4
x3
x2
x1
x0
x/
x.
x-
x,
x+
x*
#690000
0#
0n
#695000
1#
1n
b1 ,!
b0 y
09
08
07
06
05
04
03
02
01
00
0/
0.
0-
0,
0+
0*
#700000
0#
0n
#705000
1#
1n
b10 ,!
#710000
0#
0n
#715000
1#
1n
0W
bx y
b11 ,!
x9
x8
x7
x6
x5
x4
x3
x2
x1
x0
x/
x.
x-
x,
x+
x*
#720000
0#
0n
#725000
1#
1n
1Y
0X
0Y
1X
b111 P
b11111110 S
b11111110 T
b11111110 !
b11111110 "
0@!
0m
08!
0e
0]!
0U!
0d!
b0 G!
b1111111000000001 G!
b1111111000000001 #!
1H
b1 ,!
b0 y
09
08
07
06
05
04
03
02
01
00
0/
0.
0-
0,
0+
0*
#730000
0#
0n
#735000
1#
1n
b10 ,!
#740000
0#
0n
#745000
1#
1n
b11101 Q
1W
bx y
b11 ,!
x9
x8
x7
x6
x5
x4
x3
x2
x1
x0
x/
x.
x-
x,
x+
x*
#750000
0#
0n
#755000
1#
1n
b1 ,!
b1111111000000001 y
19
08
07
06
05
04
03
02
01
10
1/
1.
1-
1,
1+
1*
#760000
0#
0n
#765000
1#
1n
b10 ,!
#770000
0#
0n
#775000
1#
1n
0W
bx y
b11 ,!
x9
x8
x7
x6
x5
x4
x3
x2
x1
x0
x/
x.
x-
x,
x+
x*
#780000
0#
0n
#785000
1#
1n
1Y
0X
0Y
1X
b1000 P
b11 S
b100 T
b11 !
b100 "
0?!
0=!
0<!
0;!
0:!
09!
0l
0j
0i
0h
0g
0f
18!
06!
05!
04!
03!
02!
01!
1e
0c
0b
0a
0`
0_
0^
0\!
0Z!
0Y!
0X!
0W!
0V!
1U!
0S!
0R!
0Q!
0P!
0O!
0N!
1e!
1d!
0b!
0a!
0`!
0_!
0^!
1m!
1l!
1k!
1j!
1i!
1h!
1g!
1f!
b0 G!
b10100 G!
b0 #!
b10100 #!
0H
1F
1D
b1 ,!
b1111111000000001 y
19
08
07
06
05
04
03
02
01
10
1/
1.
1-
1,
1+
1*
#790000
0#
0n
#795000
1#
1n
b10 ,!
#800000
0#
0n
#805000
1#
1n
b11110 Q
1W
bx y
b11 ,!
x9
x8
x7
x6
x5
x4
x3
x2
x1
x0
x/
x.
x-
x,
x+
x*
#810000
0#
0n
#815000
1#
1n
b1 ,!
b10100 y
09
08
17
06
15
04
03
02
01
00
0/
0.
0-
0,
0+
0*
#820000
0#
0n
#825000
1#
1n
b10 ,!
#830000
0#
0n
#835000
1#
1n
0W
bx y
b11 ,!
x9
x8
x7
x6
x5
x4
x3
x2
x1
x0
x/
x.
x-
x,
x+
x*
#840000
0#
0n
#845000
1#
1n
1Y
0X
0Y
1X
b1001 P
b0 S
b101 T
b0 !
b101 "
1@!
1m
08!
07!
0e
0d
1]!
0U!
0T!
0d!
0k!
b0 G!
b110 G!
b0 #!
b110 #!
1G
0D
b1 ,!
b10100 y
09
08
17
06
15
04
03
02
01
00
0/
0.
0-
0,
0+
0*
#850000
0#
0n
#855000
1#
1n
b10 ,!
#860000
0#
0n
#865000
1#
1n
b11111 Q
1W
bx y
b11 ,!
x9
x8
x7
x6
x5
x4
x3
x2
x1
x0
x/
x.
x-
x,
x+
x*
#870000
0#
0n
#875000
1#
1n
b1 ,!
b110 y
09
18
17
06
05
04
03
02
01
00
0/
0.
0-
0,
0+
0*
#880000
0#
0n
#885000
1#
1n
b10 ,!
#890000
0#
0n
#895000
1#
1n
0W
bx y
b11 ,!
x9
x8
x7
x6
x5
x4
x3
x2
x1
x0
x/
x.
x-
x,
x+
x*
#900000
0#
0n
#905000
1#
1n
1Y
0X
0Y
1X
b1010 P
b11111111 S
b11111111 T
b11111111 !
b11111111 "
1?!
1=!
1<!
1;!
1:!
19!
1l
1j
1i
1h
1g
1f
18!
17!
16!
15!
14!
13!
12!
11!
1e
1d
1c
1b
1a
1`
1_
1^
1\!
1Z!
1Y!
1X!
1W!
1V!
1U!
1T!
1S!
1R!
1Q!
1P!
1O!
1N!
0e!
1d!
1b!
1a!
1`!
1_!
1^!
0m!
0l!
0j!
0i!
0h!
0g!
0f!
b0 G!
b10000000000000000 G!
b0 #!
0G
0F
b1 ,!
b110 y
09
18
17
06
05
04
03
02
01
00
0/
0.
0-
0,
0+
0*
#910000
0#
0n
#915000
1#
1n
b10 ,!
#920000
0#
0n
#925000
1#
1n
b100000 Q
1W
bx y
b11 ,!
x9
x8
x7
x6
x5
x4
x3
x2
x1
x0
x/
x.
x-
x,
x+
x*
#930000
0#
0n
#935000
1#
1n
b1 ,!
b0 y
09
08
07
06
05
04
03
02
01
00
0/
0.
0-
0,
0+
0*
#940000
0#
0n
#945000
1#
1n
b10 ,!
#950000
0#
0n
#955000
1#
1n
0W
bx y
b11 ,!
x9
x8
x7
x6
x5
x4
x3
x2
x1
x0
x/
x.
x-
x,
x+
x*
#960000
0#
0n
#965000
1#
1n
1Y
0X
0Y
1X
b1011 P
b1100000 S
b1100000 T
b1100000 !
b1100000 "
0@!
0?!
0>!
0=!
0<!
09!
0m
0l
0k
0j
0i
0f
08!
07!
06!
05!
04!
01!
0e
0d
0c
0b
0a
0^
0]!
0\!
0[!
0Z!
0Y!
0V!
0U!
0T!
0S!
0R!
0Q!
0N!
0d!
0c!
0b!
0a!
0`!
b0 G!
b10010011000001 G!
b10010011000001 #!
1H
1B
1A
b1 ,!
b0 y
09
08
07
06
05
04
03
02
01
00
0/
0.
0-
0,
0+
0*
#970000
0#
0n
#975000
1#
1n
b10 ,!
#980000
0#
0n
#985000
1#
1n
b100001 Q
1W
bx y
b11 ,!
x9
x8
x7
x6
x5
x4
x3
x2
x1
x0
x/
x.
x-
x,
x+
x*
#990000
0#
0n
#995000
1#
1n
b1 ,!
b10010011000001 y
19
08
07
06
05
04
13
12
01
00
1/
0.
0-
1,
0+
0*
#1000000
0#
0n
#1005000
1#
1n
b10 ,!
#1010000
0#
0n
#1015000
1#
1n
0W
bx y
b11 ,!
x9
x8
x7
x6
x5
x4
x3
x2
x1
x0
x/
x.
x-
x,
x+
x*
#1020000
0#
0n
#1025000
1#
1n
1Y
0X
0Y
1X
b1100 P
b1111110 S
b1111110 T
b1111110 !
b1111110 "
1?!
1>!
1=!
1<!
1l
1k
1j
1i
17!
16!
15!
14!
1d
1c
1b
1a
1\!
1[!
1Z!
1Y!
1T!
1S!
1R!
1Q!
1c!
1b!
1a!
1`!
b0 G!
b11111100000001 G!
b0 #!
b11111100000001 #!
0B
0A
1@
b1 ,!
b10010011000001 y
19
08
07
06
05
04
13
12
01
00
1/
0.
0-
1,
0+
0*
#1030000
0#
0n
#1035000
1#
1n
b10 ,!
#1040000
0#
0n
#1045000
1#
1n
b100010 Q
1W
bx y
b11 ,!
x9
x8
x7
x6
x5
x4
x3
x2
x1
x0
x/
x.
x-
x,
x+
x*
#1050000
0#
0n
#1055000
1#
1n
b1 ,!
b11111100000001 y
19
08
07
06
05
04
03
02
11
10
1/
1.
1-
1,
0+
0*
#1060000
0#
0n
