src/verification/log_file.log
# vsim work.alu_testbench -l log_file.log -coverage -c -do "coverage save -onexit -codeAll coverage_file.ucdb; run -all; exit" 
# Start time: 12:08:09 on May 08,2026
# ** Note: (vsim-3813) Design is being optimized due to module recompilation...
# //  Questa Sim
# //  Version 10.6c linux Jul 25 2017
# //
# //  Copyright 1991-2017 Mentor Graphics Corporation
# //  All Rights Reserved.
# //
# //  QuestaSim and its associated documentation contain trade
# //  secrets and commercial or financial information that are the property of
# //  Mentor Graphics Corporation and are privileged, confidential,
# //  and exempt from disclosure under the Freedom of Information Act,
# //  5 U.S.C. Section 552. Furthermore, this information
# //  is prohibited from disclosure under the Trade Secrets Act,
# //  18 U.S.C. Section 1905.
# //
# Loading work.alu_testbench(fast)
# Loading work.Eight_bit_ALU_rtl_design(fast)
# Loading work.alu_reference_model(fast)
# ** Warning: (vsim-3015) alu_testbench.v(23): [PCDPC] - Port size (2) does not match connection size (1) for port 'inp_valid'. The port definition is at: Eight_bit_ALU_rtl_design.v(10).
#    Time: 0 ps  Iteration: 0  Instance: /alu_testbench/dut File: Eight_bit_ALU_rtl_design.v
# ** Warning: (vsim-3015) alu_testbench.v(35): [PCDPC] - Port size (2) does not match connection size (1) for port 'INP_VALID'. The port definition is at: alu_reference_model.v(4).
#    Time: 0 ps  Iteration: 0  Instance: /alu_testbench/ref File: alu_reference_model.v
# ** Warning: (vsim-3015) alu_testbench.v(35): [PCDPC] - Port size (17) does not match connection size (9) for port 'RES'. The port definition is at: alu_reference_model.v(8).
#    Time: 0 ps  Iteration: 0  Instance: /alu_testbench/ref File: alu_reference_model.v
# coverage save -onexit -codeAll coverage_file.ucdb
#  run -all
# 
# === Testing Arithmetic Operations (MODE=1) ===
# [FAIL]                                                                              ADD: OPA=0x0f OPB=0x11 CMD=0x0
#   DUT: RES=0x0000 COUT=0 OFLOW=0 G=0 E=0 L=0 ERR=1
#   REF: RES=0x020 COUT=0 OFLOW=0 G=0 E=0 L=0 ERR=0
# [FAIL]                                                                   ADD (overflow): OPA=0xff OPB=0x01 CMD=0x0
#   DUT: RES=0x0000 COUT=0 OFLOW=0 G=0 E=0 L=0 ERR=1
#   REF: RES=0x000 COUT=1 OFLOW=0 G=0 E=0 L=0 ERR=0
# [FAIL]                                                                              SUB: OPA=0x20 OPB=0x10 CMD=0x1
#   DUT: RES=0x0000 COUT=0 OFLOW=0 G=0 E=0 L=0 ERR=1
#   REF: RES=0x010 COUT=0 OFLOW=0 G=0 E=0 L=0 ERR=0
# [FAIL]                                                                  SUB (underflow): OPA=0x10 OPB=0x20 CMD=0x1
#   DUT: RES=0x0000 COUT=0 OFLOW=0 G=0 E=0 L=0 ERR=1
#   REF: RES=0x1f0 COUT=0 OFLOW=1 G=0 E=0 L=0 ERR=0
# [FAIL]                                                                          ADD_CIN: OPA=0x10 OPB=0x20 CMD=0x2
#   DUT: RES=0x0000 COUT=0 OFLOW=0 G=0 E=0 L=0 ERR=1
#   REF: RES=0x031 COUT=0 OFLOW=0 G=0 E=0 L=0 ERR=0
# [PASS]                                                                            INC_A: OPA=0x0a OPB=0x00 CMD=0x4
# [PASS]                                                                            DEC_A: OPA=0x0a OPB=0x00 CMD=0x5
# [FAIL]                                                                      CMP (equal): OPA=0x10 OPB=0x10 CMD=0x8
#   DUT: RES=0x0000 COUT=0 OFLOW=0 G=0 E=0 L=0 ERR=1
#   REF: RES=0xzzz COUT=0 OFLOW=0 G=0 E=1 L=0 ERR=0
# [FAIL]                                                                    CMP (greater): OPA=0x20 OPB=0x10 CMD=0x8
#   DUT: RES=0x0000 COUT=0 OFLOW=0 G=0 E=0 L=0 ERR=1
#   REF: RES=0xzzz COUT=0 OFLOW=0 G=1 E=0 L=0 ERR=0
# [FAIL]                                                                       CMP (less): OPA=0x10 OPB=0x20 CMD=0x8
#   DUT: RES=0x0000 COUT=0 OFLOW=0 G=0 E=0 L=0 ERR=1
#   REF: RES=0xzzz COUT=0 OFLOW=0 G=0 E=0 L=1 ERR=0
# 
# === Testing Logical Operations (MODE=0) ===
# [FAIL]                                                                              AND: OPA=0xf0 OPB=0x0f CMD=0x0
#   DUT: RES=0x0000 COUT=0 OFLOW=0 G=0 E=0 L=0 ERR=1
#   REF: RES=0x000 COUT=0 OFLOW=0 G=0 E=0 L=0 ERR=0
# [FAIL]                                                                             NAND: OPA=0xf0 OPB=0x0f CMD=0x1
#   DUT: RES=0x0000 COUT=0 OFLOW=0 G=0 E=0 L=0 ERR=1
#   REF: RES=0x0ff COUT=0 OFLOW=0 G=0 E=0 L=0 ERR=0
# [FAIL]                                                                               OR: OPA=0xf0 OPB=0x0f CMD=0x2
#   DUT: RES=0x0000 COUT=0 OFLOW=0 G=0 E=0 L=0 ERR=1
#   REF: RES=0x0ff COUT=0 OFLOW=0 G=0 E=0 L=0 ERR=0
# [FAIL]                                                                              NOR: OPA=0xf0 OPB=0x0f CMD=0x3
#   DUT: RES=0x0000 COUT=0 OFLOW=0 G=0 E=0 L=0 ERR=1
#   REF: RES=0x000 COUT=0 OFLOW=0 G=0 E=0 L=0 ERR=0
# [FAIL]                                                                              XOR: OPA=0xaa OPB=0x55 CMD=0x4
#   DUT: RES=0x0000 COUT=0 OFLOW=0 G=0 E=0 L=0 ERR=1
#   REF: RES=0x0ff COUT=0 OFLOW=0 G=0 E=0 L=0 ERR=0
# [FAIL]                                                                             XNOR: OPA=0xaa OPB=0x55 CMD=0x5
#   DUT: RES=0x0000 COUT=0 OFLOW=0 G=0 E=0 L=0 ERR=1
#   REF: RES=0x000 COUT=0 OFLOW=0 G=0 E=0 L=0 ERR=0
# [PASS]                                                                            NOT_A: OPA=0xf0 OPB=0x00 CMD=0x6
# [FAIL]                                                                            NOT_B: OPA=0x00 OPB=0xf0 CMD=0x7
#   DUT: RES=0x0000 COUT=0 OFLOW=0 G=0 E=0 L=0 ERR=1
#   REF: RES=0x00f COUT=0 OFLOW=0 G=0 E=0 L=0 ERR=0
# [PASS]                                                                           SHR1_A: OPA=0xaa OPB=0x00 CMD=0x8
# [PASS]                                                                           SHL1_A: OPA=0x55 OPB=0x00 CMD=0x9
# [FAIL]                                                                          ROL_A_B: OPA=0xaa OPB=0x03 CMD=0xc
#   DUT: RES=0x0000 COUT=0 OFLOW=0 G=0 E=0 L=0 ERR=1
#   REF: RES=0x055 COUT=0 OFLOW=0 G=0 E=0 L=0 ERR=0
# [FAIL]                                                                          ROR_A_B: OPA=0xaa OPB=0x02 CMD=0xd
#   DUT: RES=0x0000 COUT=0 OFLOW=0 G=0 E=0 L=0 ERR=1
#   REF: RES=0x0aa COUT=0 OFLOW=0 G=0 E=0 L=0 ERR=0
# 
# === TEST SUMMARY ===
# Total Tests: 22
# PASS: 5
# FAIL: 17
# 
# *** SOME TESTS FAILED ***
# 
# ** Note: $finish    : alu_testbench.v(86)
#    Time: 875 ns  Iteration: 0  Instance: /alu_testbench
# Saving coverage database on exit...
# End time: 12:08:10 on May 08,2026, Elapsed time: 0:00:01
# Errors: 0, Warnings: 3
