src/design/alu_test.vcd
$date
	Fri May 15 15:38:05 2026
$end
$version
	QuestaSim Version 10.6c
$end
$timescale
	1ps
$end

$scope module alu_testbench $end
$var reg 8 ! OPA [7:0] $end
$var reg 8 " OPB [7:0] $end
$var reg 1 # CLK $end
$var reg 1 $ RST $end
$var reg 1 % CE $end
$var reg 1 & MODE $end
$var reg 1 ' CIN $end
$var reg 4 ( CMD [3:0] $end
$var reg 2 ) INP_VALID [1:0] $end
$var wire 1 * RES_dut [15] $end
$var wire 1 + RES_dut [14] $end
$var wire 1 , RES_dut [13] $end
$var wire 1 - RES_dut [12] $end
$var wire 1 . RES_dut [11] $end
$var wire 1 / RES_dut [10] $end
$var wire 1 0 RES_dut [9] $end
$var wire 1 1 RES_dut [8] $end
$var wire 1 2 RES_dut [7] $end
$var wire 1 3 RES_dut [6] $end
$var wire 1 4 RES_dut [5] $end
$var wire 1 5 RES_dut [4] $end
$var wire 1 6 RES_dut [3] $end
$var wire 1 7 RES_dut [2] $end
$var wire 1 8 RES_dut [1] $end
$var wire 1 9 RES_dut [0] $end
$var wire 1 : COUT_dut $end
$var wire 1 ; OFLOW_dut $end
$var wire 1 < G_dut $end
$var wire 1 = E_dut $end
$var wire 1 > L_dut $end
$var wire 1 ? ERR_dut $end
$var wire 1 @ RES_ref [15] $end
$var wire 1 A RES_ref [14] $end
$var wire 1 B RES_ref [13] $end
$var wire 1 C RES_ref [12] $end
$var wire 1 D RES_ref [11] $end
$var wire 1 E RES_ref [10] $end
$var wire 1 F RES_ref [9] $end
$var wire 1 G RES_ref [8] $end
$var wire 1 H RES_ref [7] $end
$var wire 1 I RES_ref [6] $end
$var wire 1 J RES_ref [5] $end
$var wire 1 K RES_ref [4] $end
$var wire 1 L RES_ref [3] $end
$var wire 1 M RES_ref [2] $end
$var wire 1 N RES_ref [1] $end
$var wire 1 O RES_ref [0] $end
$var wire 1 P COUT_ref $end
$var wire 1 Q OFLOW_ref $end
$var wire 1 R G_ref $end
$var wire 1 S E_ref $end
$var wire 1 T L_ref $end
$var wire 1 U ERR_ref $end
$var integer 32 V pass_count $end
$var integer 32 W fail_count $end
$var integer 32 X test_count $end
$var reg 1 Y cmp $end
$var reg 1 Z abcd $end

$scope task test_arithmetic $end
$upscope $end

$scope task test_logical $end
$upscope $end

$scope task apply_test $end
$var reg 8 [ a [7:0] $end
$var reg 8 \ b [7:0] $end
$var reg 4 ] cmd [3:0] $end
$var reg 640 ^ test_name [640:1] $end
$upscope $end

$scope task compare_outputs $end
$var reg 1 _ compare__outputs $end
$upscope $end

$scope function compare_bit $end
$var reg 1 ` compare_bit $end
$var reg 1 a dut $end
$var reg 1 b ref $end
$upscope $end

$scope task display_mismatch $end
$upscope $end

$scope module dut $end
$var parameter 32 c A $end
$var parameter 32 d B $end
$var parameter 32 e C $end
$var wire 1 f CLK $end
$var wire 1 g RST $end
$var wire 1 h INP_VALID [1] $end
$var wire 1 i INP_VALID [0] $end
$var wire 1 j MODE $end
$var wire 1 k CMD [3] $end
$var wire 1 l CMD [2] $end
$var wire 1 m CMD [1] $end
$var wire 1 n CMD [0] $end
$var wire 1 o CE $end
$var wire 1 p OPA [7] $end
$var wire 1 q OPA [6] $end
$var wire 1 r OPA [5] $end
$var wire 1 s OPA [4] $end
$var wire 1 t OPA [3] $end
$var wire 1 u OPA [2] $end
$var wire 1 v OPA [1] $end
$var wire 1 w OPA [0] $end
$var wire 1 x OPB [7] $end
$var wire 1 y OPB [6] $end
$var wire 1 z OPB [5] $end
$var wire 1 { OPB [4] $end
$var wire 1 | OPB [3] $end
$var wire 1 } OPB [2] $end
$var wire 1 ~ OPB [1] $end
$var wire 1 !! OPB [0] $end
$var wire 1 "! CIN $end
$var reg 1 #! ERR $end
$var reg 16 $! RES [15:0] $end
$var reg 1 %! OFLOW $end
$var reg 1 &! COUT $end
$var reg 1 '! G $end
$var reg 1 (! L $end
$var reg 1 )! E $end
$var reg 16 *! RES_temp [15:0] $end
$var reg 1 +! ERR_temp $end
$var reg 1 ,! OFLOW_temp $end
$var reg 1 -! COUT_temp $end
$var reg 1 .! G_temp $end
$var reg 1 /! L_temp $end
$var reg 1 0! E_temp $end
$var reg 2 1! cnt_9 [1:0] $end
$var reg 2 2! cnt_10 [1:0] $end
$var reg 8 3! OPA_1 [7:0] $end
$var reg 8 4! OPB_1 [7:0] $end
$var reg 8 5! OPA_L1 [7:0] $end
$var wire 1 6! sOPA [7] $end
$var wire 1 7! sOPA [6] $end
$var wire 1 8! sOPA [5] $end
$var wire 1 9! sOPA [4] $end
$var wire 1 :! sOPA [3] $end
$var wire 1 ;! sOPA [2] $end
$var wire 1 <! sOPA [1] $end
$var wire 1 =! sOPA [0] $end
$var wire 1 >! sOPB [7] $end
$var wire 1 ?! sOPB [6] $end
$var wire 1 @! sOPB [5] $end
$var wire 1 A! sOPB [4] $end
$var wire 1 B! sOPB [3] $end
$var wire 1 C! sOPB [2] $end
$var wire 1 D! sOPB [1] $end
$var wire 1 E! sOPB [0] $end
$var wire 1 F! s_add [7] $end
$var wire 1 G! s_add [6] $end
$var wire 1 H! s_add [5] $end
$var wire 1 I! s_add [4] $end
$var wire 1 J! s_add [3] $end
$var wire 1 K! s_add [2] $end
$var wire 1 L! s_add [1] $end
$var wire 1 M! s_add [0] $end
$var wire 1 N! s_sub [7] $end
$var wire 1 O! s_sub [6] $end
$var wire 1 P! s_sub [5] $end
$var wire 1 Q! s_sub [4] $end
$var wire 1 R! s_sub [3] $end
$var wire 1 S! s_sub [2] $end
$var wire 1 T! s_sub [1] $end
$var wire 1 U! s_sub [0] $end
$upscope $end

$scope module ref $end
$var wire 1 V! CE $end
$var wire 1 W! INP_VALID [1] $end
$var wire 1 X! INP_VALID [0] $end
$var wire 1 Y! OPA [7] $end
$var wire 1 Z! OPA [6] $end
$var wire 1 [! OPA [5] $end
$var wire 1 \! OPA [4] $end
$var wire 1 ]! OPA [3] $end
$var wire 1 ^! OPA [2] $end
$var wire 1 _! OPA [1] $end
$var wire 1 `! OPA [0] $end
$var wire 1 a! OPB [7] $end
$var wire 1 b! OPB [6] $end
$var wire 1 c! OPB [5] $end
$var wire 1 d! OPB [4] $end
$var wire 1 e! OPB [3] $end
$var wire 1 f! OPB [2] $end
$var wire 1 g! OPB [1] $end
$var wire 1 h! OPB [0] $end
$var wire 1 i! CIN $end
$var wire 1 j! MODE $end
$var wire 1 k! CMD [3] $end
$var wire 1 l! CMD [2] $end
$var wire 1 m! CMD [1] $end
$var wire 1 n! CMD [0] $end
$var reg 16 o! RES [15:0] $end
$var reg 1 p! COUT $end
$var reg 1 q! OFLOW $end
$var reg 1 r! G $end
$var reg 1 s! E $end
$var reg 1 t! L $end
$var reg 1 u! ERR $end
$var wire 1 v! sOPA [7] $end
$var wire 1 w! sOPA [6] $end
$var wire 1 x! sOPA [5] $end
$var wire 1 y! sOPA [4] $end
$var wire 1 z! sOPA [3] $end
$var wire 1 {! sOPA [2] $end
$var wire 1 |! sOPA [1] $end
$var wire 1 }! sOPA [0] $end
$var wire 1 ~! sOPB [7] $end
$var wire 1 !" sOPB [6] $end
$var wire 1 "" sOPB [5] $end
$var wire 1 #" sOPB [4] $end
$var wire 1 $" sOPB [3] $end
$var wire 1 %" sOPB [2] $end
$var wire 1 &" sOPB [1] $end
$var wire 1 '" sOPB [0] $end
$var wire 1 (" s_add [15] $end
$var wire 1 )" s_add [14] $end
$var wire 1 *" s_add [13] $end
$var wire 1 +" s_add [12] $end
$var wire 1 ," s_add [11] $end
$var wire 1 -" s_add [10] $end
$var wire 1 ." s_add [9] $end
$var wire 1 /" s_add [8] $end
$var wire 1 0" s_add [7] $end
$var wire 1 1" s_add [6] $end
$var wire 1 2" s_add [5] $end
$var wire 1 3" s_add [4] $end
$var wire 1 4" s_add [3] $end
$var wire 1 5" s_add [2] $end
$var wire 1 6" s_add [1] $end
$var wire 1 7" s_add [0] $end
$var wire 1 8" s_sub [15] $end
$var wire 1 9" s_sub [14] $end
$var wire 1 :" s_sub [13] $end
$var wire 1 ;" s_sub [12] $end
$var wire 1 <" s_sub [11] $end
$var wire 1 =" s_sub [10] $end
$var wire 1 >" s_sub [9] $end
$var wire 1 ?" s_sub [8] $end
$var wire 1 @" s_sub [7] $end
$var wire 1 A" s_sub [6] $end
$var wire 1 B" s_sub [5] $end
$var wire 1 C" s_sub [4] $end
$var wire 1 D" s_sub [3] $end
$var wire 1 E" s_sub [2] $end
$var wire 1 F" s_sub [1] $end
$var wire 1 G" s_sub [0] $end
$upscope $end
$upscope $end
$enddefinitions $end
#0
$dumpvars
b0 !
b0 "
0#
0$
0%
0&
0'
b0 (
bx )
xY
xZ
x#!
bx $!
x%!
x&!
x'!
x(!
x)!
bx *!
x+!
x,!
x-!
x.!
x/!
x0!
b0 1!
b0 2!
bx 3!
bx 4!
bx 5!
b0 o!
0p!
0q!
0r!
0s!
0t!
0u!
bx [
bx \
bx ]
bx ^
x_
x`
xa
xb
b1000 c
b1000 d
b100 e
b0 V
b0 W
b0 X
x9
x8
x7
x6
x5
x4
x3
x2
x1
x0
x/
x.
x-
x,
x+
x*
x:
x;
x<
x=
x>
x?
0O
0N
0M
0L
0K
0J
0I
0H
0G
0F
0E
0D
0C
0B
0A
0@
0P
0Q
0R
0S
0T
0U
0=!
0<!
0;!
0:!
09!
08!
07!
06!
0E!
0D!
0C!
0B!
0A!
0@!
0?!
0>!
0M!
0L!
0K!
0J!
0I!
0H!
0G!
0F!
0U!
0T!
0S!
0R!
0Q!
0P!
0O!
0N!
0}!
0|!
0{!
0z!
0y!
0x!
0w!
0v!
0'"
0&"
0%"
0$"
0#"
0""
0!"
0~!
07"
06"
05"
04"
03"
02"
01"
00"
0/"
0."
0-"
0,"
0+"
0*"
0)"
0("
0G"
0F"
0E"
0D"
0C"
0B"
0A"
0@"
0?"
0>"
0="
0<"
0;"
0:"
09"
08"
0n!
0m!
0l!
0k!
0j!
0i!
0h!
0g!
0f!
0e!
0d!
0c!
0b!
0a!
0`!
0_!
0^!
0]!
0\!
0[!
0Z!
0Y!
xX!
xW!
0V!
0"!
0!!
0~
0}
0|
0{
0z
0y
0x
0w
0v
0u
0t
0s
0r
0q
0p
0o
0n
0m
0l
0k
0j
xi
xh
0g
0f
$end
#5000
1#
1f
1$
1g
0+!
0#!
b0 *!
b0 $!
0-!
0&!
0,!
0.!
0/!
00!
0'!
0(!
0)!
0?
09
08
07
06
05
04
03
02
01
00
0/
0.
0-
0,
0+
0*
0:
0<
0>
0=
#10000
0#
0f
#15000
1#
1f
0$
1%
1o
0g
1V!
1u!
1U
#20000
0#
0f
#25000
1#
1f
0%
0o
0V!
0u!
0U
0%!
1+!
0;
#30000
0#
0f
#35000
1#
1f
1%
b1 !
b1 "
1&
1o
1!!
1w
1j
1E!
1=!
1L!
1V!
1h!
1`!
1j!
1'"
1}!
16"
1u!
1U
#40000
0#
0f
#45000
1#
1f
0&
0j
0j!
0u!
1u!
1#!
0+!
1+!
1?
#50000
0#
0f
#55000
1#
1f
1&
b1111 (
1j
1n
1m
1l
1k
1j!
1n!
1m!
1l!
1k!
0u!
1u!
0+!
1+!
#60000
0#
0f
#65000
1#
1f
0&
0j
0j!
0u!
1u!
0+!
1+!
#70000
0#
0f
#75000
1#
1f
b11 )
1i
1h
1X!
1W!
0u!
1u!
0+!
1+!
#80000
0#
0f
#85000
1#
1f
1&
b1 [
b1 \
b0 ]
b10000010100010001000100 ^
b0 (
1j
0n
0m
0l
0k
1j!
0n!
0m!
0l!
0k!
0u!
b10 o!
0U
1N
0+!
1+!
#90000
0#
0f
#95000
1#
1f
0+!
b10 *!
#100000
0#
0f
#105000
1#
1f
b1 X
1_
0_
0a
0b
1`
1a
0`
0Y
b1 W
b11111111 [
b11111111 !
1v
1u
1t
1s
1r
1q
1p
1<!
1;!
1:!
19!
18!
17!
16!
0L!
1T!
1S!
1R!
1Q!
1P!
1O!
1N!
1_!
1^!
1]!
1\!
1[!
1Z!
1Y!
1|!
1{!
1z!
1y!
1x!
1w!
1v!
06"
1F"
1E"
1D"
1C"
1B"
1A"
1@"
1?"
1>"
1="
1<"
1;"
1:"
19"
18"
b0 o!
b100000000 o!
1p!
0N
1G
1P
b10 $!
0#!
b0 *!
b10 *!
18
0?
#110000
0#
0f
#115000
1#
1f
b0 *!
1-!
#120000
0#
0f
#125000
1#
1f
b10 X
1_
0_
0a
1b
0b
1`
b10 W
b0 [
b0 \
b0 !
b0 "
0!!
0w
0v
0u
0t
0s
0r
0q
0p
0E!
0=!
0<!
0;!
0:!
09!
08!
07!
06!
0T!
0S!
0R!
0Q!
0P!
0O!
0N!
0h!
0`!
0_!
0^!
0]!
0\!
0[!
0Z!
0Y!
0'"
0}!
0|!
0{!
0z!
0y!
0x!
0w!
0v!
0F"
0E"
0D"
0C"
0B"
0A"
0@"
0?"
0>"
0="
0<"
0;"
0:"
09"
08"
b0 o!
0p!
0G
0P
b0 $!
1&!
0-!
1-!
08
1:
#130000
0#
0f
#135000
1#
1f
0-!
#140000
0#
0f
#145000
1#
1f
b11 X
1_
1a
0`
0_
0a
1`
b11 W
b1 [
b1 \
b1 ]
b10100110101010101000010 ^
b1 !
b1 "
b1 (
1n
1!!
1w
1E!
1=!
1L!
1n!
1h!
1`!
1'"
1}!
16"
0&!
0:
#150000
0#
0f
#155000
1#
1f
#160000
0#
0f
#165000
1#
1f
b100 X
1_
1Y
b1 V
b0 [
b0 !
0w
0=!
1M!
0L!
1U!
1T!
1S!
1R!
1Q!
1P!
1O!
1N!
0`!
0}!
17"
06"
1G"
1F"
1E"
1D"
1C"
1B"
1A"
1@"
1?"
1>"
1="
1<"
1;"
1:"
19"
18"
1q!
b1111111111111111 o!
1Q
1O
1N
1M
1L
1K
1J
1I
1H
1G
1F
1E
1D
1C
1B
1A
1@
#170000
0#
0f
#175000
1#
1f
1,!
b11111111 *!
#180000
0#
0f
#185000
1#
1f
b101 X
0_
1b
0`
0b
1`
0Y
b100 W
b1010000 [
b1010000 \
b1010000 !
b1010000 "
0!!
1{
1y
1s
1q
0E!
1A!
1?!
19!
17!
0M!
1H!
1F!
0U!
0T!
0S!
0R!
0Q!
0P!
0O!
0N!
0h!
1d!
1b!
1\!
1Z!
0'"
1#"
1!"
1y!
1w!
07"
12"
10"
0G"
0F"
0E"
0D"
0C"
0B"
0A"
0@"
0?"
0>"
0="
0<"
0;"
0:"
09"
08"
b0 o!
0q!
0O
0N
0M
0L
0K
0J
0I
0H
0G
0F
0E
0D
0C
0B
0A
0@
0Q
b11111111 $!
1%!
0,!
b0 *!
1,!
b11111111 *!
19
18
17
16
15
14
13
12
1;
#190000
0#
0f
#195000
1#
1f
0,!
b0 *!
#200000
0#
0f
#205000
1#
1f
b110 X
1_
0_
1a
0`
0a
1`
b101 W
1'
b11111111 [
b0 \
b10 ]
b1000001010001000100010001011111010000110100100101001110 ^
b11111111 !
b0 "
b10 (
1"!
0n
1m
0{
0y
1w
1v
1u
1t
1r
1p
0A!
0?!
1=!
1<!
1;!
1:!
18!
16!
1M!
1L!
1K!
1J!
1I!
1G!
1U!
1T!
1S!
1R!
1Q!
1P!
1O!
1N!
1i!
0n!
1m!
0d!
0b!
1`!
1_!
1^!
1]!
1[!
1Y!
0#"
0!"
1}!
1|!
1{!
1z!
1x!
1v!
17"
16"
15"
14"
13"
11"
1/"
1."
1-"
1,"
1+"
1*"
1)"
1("
1G"
1F"
1E"
1D"
1C"
1B"
1A"
1@"
1?"
1>"
1="
1<"
1;"
1:"
19"
18"
b100000000 o!
1p!
1G
1P
b0 $!
0%!
09
08
07
06
05
04
03
02
0;
#210000
0#
0f
#215000
1#
1f
1-!
#220000
0#
0f
#225000
1#
1f
b111 X
1_
0_
1b
0`
0b
1`
b110 W
0'
0"!
0i!
b0 o!
0p!
b11111111 o!
1O
1N
1M
1L
1K
1J
1I
1H
0G
0P
1&!
0-!
1-!
1:
#230000
0#
0f
#235000
1#
1f
0-!
b11111111 *!
#240000
0#
0f
#245000
1#
1f
b1000 X
1_
0_
1a
0`
0a
1`
b111 W
1'
b1 [
b1 \
b1 !
b1 "
1"!
1!!
0v
0u
0t
0s
0r
0q
0p
1E!
0<!
0;!
0:!
09!
08!
07!
06!
0M!
0K!
0J!
0I!
0H!
0G!
0F!
0U!
0T!
0S!
0R!
0Q!
0P!
0O!
0N!
1i!
1h!
0_!
0^!
0]!
0\!
0[!
0Z!
0Y!
1'"
0|!
0{!
0z!
0y!
0x!
0w!
0v!
07"
05"
04"
03"
02"
01"
00"
0/"
0."
0-"
0,"
0+"
0*"
0)"
0("
0G"
0F"
0E"
0D"
0C"
0B"
0A"
0@"
0?"
0>"
0="
0<"
0;"
0:"
09"
08"
b0 o!
b11 o!
0M
0L
0K
0J
0I
0H
b11111111 $!
0&!
b0 *!
b11111111 *!
19
18
17
16
15
14
13
12
0:
#250000
0#
0f
#255000
1#
1f
b0 *!
b11 *!
#260000
0#
0f
#265000
1#
1f
b1001 X
1_
0_
b1000 W
0'
1'
b1010 [
b11 \
b11 ]
b1010011010101010100001001011111010000110100100101001110 ^
b1010 !
b11 "
b11 (
1n
1~
0w
1v
1t
1D!
0=!
1<!
1:!
1M!
0L!
1K!
1J!
1U!
1T!
1S!
1n!
1g!
0`!
1_!
1]!
1&"
0}!
1|!
1z!
17"
06"
15"
14"
1G"
1F"
1E"
b0 o!
b110 o!
0O
1M
b11 $!
b0 *!
b11 *!
07
06
05
04
03
02
#270000
0#
0f
#275000
1#
1f
b0 *!
b110 *!
#280000
0#
0f
#285000
1#
1f
b1010 X
1_
0_
b1001 W
b0 [
b0 \
b0 !
b0 "
0!!
0~
0v
0t
0E!
0D!
0<!
0:!
0M!
0K!
0J!
0U!
0T!
0S!
0h!
0g!
0_!
0]!
0'"
0&"
0|!
0z!
07"
05"
04"
0G"
0F"
0E"
b0 o!
1q!
b1111111111111111 o!
1O
1L
1K
1J
1I
1H
1G
1F
1E
1D
1C
1B
1A
1@
1Q
b110 $!
b0 *!
b110 *!
09
17
#290000
0#
0f
#295000
1#
1f
b0 *!
1,!
b11111111 *!
#300000
0#
0f
#305000
1#
1f
b1011 X
1_
0_
1b
0`
0b
1`
b1010 W
0'
b1 [
b1 \
b1 !
b1 "
0"!
1!!
1w
1E!
1=!
1L!
0i!
1h!
1`!
1'"
1}!
16"
b0 o!
0q!
0O
0N
0M
0L
0K
0J
0I
0H
0G
0F
0E
0D
0C
0B
0A
0@
0Q
b11111111 $!
1%!
0,!
b0 *!
1,!
b11111111 *!
19
16
15
14
13
12
1;
#310000
0#
0f
#315000
1#
1f
0,!
b0 *!
#320000
0#
0f
#325000
1#
1f
b1100 X
1_
0_
1a
0`
0a
1`
b1011 W
1'
1"!
1i!
1q!
b1111111111111111 o!
1Q
1O
1N
1M
1L
1K
1J
1I
1H
1G
1F
1E
1D
1C
1B
1A
1@
b0 $!
0%!
09
08
07
06
05
04
03
02
0;
#330000
0#
0f
#335000
1#
1f
1,!
b11111111 *!
#340000
0#
0f
#345000
1#
1f
b1101 X
1_
0_
1b
0`
0b
1`
b1100 W
0'
b1010000 [
b0 \
b100 ]
b100100101001110010000110101111101000001 ^
b1010000 !
b0 "
b100 (
0"!
0n
0m
1l
0!!
0w
1s
1q
0E!
0=!
19!
17!
0L!
1I!
1G!
1Q!
1O!
0i!
0n!
0m!
1l!
0h!
0`!
1\!
1Z!
0'"
0}!
1y!
1w!
06"
13"
11"
1C"
1A"
b0 o!
0q!
b1010001 o!
0N
0M
0L
0J
0H
0G
0F
0E
0D
0C
0B
0A
0@
0Q
b11111111 $!
1%!
0,!
b0 *!
1,!
b11111111 *!
19
18
17
16
15
14
13
12
1;
#350000
0#
0f
#355000
1#
1f
0,!
b0 *!
b1010001 *!
#360000
0#
0f
#365000
1#
1f
b1110 X
1_
0_
1a
0`
0a
1`
b1101 W
b11111111 [
b11111111 !
1w
1v
1u
1t
1r
1p
1=!
1<!
1;!
1:!
18!
16!
1M!
1L!
1K!
1J!
1H!
1F!
1U!
1T!
1S!
1R!
1P!
1N!
1`!
1_!
1^!
1]!
1[!
1Y!
1}!
1|!
1{!
1z!
1x!
1v!
17"
16"
15"
14"
12"
10"
1/"
1."
1-"
1,"
1+"
1*"
1)"
1("
1G"
1F"
1E"
1D"
1B"
1@"
1?"
1>"
1="
1<"
1;"
1:"
19"
18"
b0 o!
b100000000 o!
0O
0K
0I
1G
b1010001 $!
0%!
b0 *!
b1010001 *!
08
07
06
04
02
0;
#370000
0#
0f
#375000
1#
1f
b0 *!
#380000
0#
0f
#385000
1#
1f
b1111 X
1_
0_
b1110 W
b1010 [
b1010 !
0w
0u
0s
0r
0q
0p
0=!
0;!
09!
08!
07!
06!
0M!
0K!
0I!
0H!
0G!
0F!
0U!
0S!
0Q!
0P!
0O!
0N!
0`!
0^!
0\!
0[!
0Z!
0Y!
0}!
0{!
0y!
0x!
0w!
0v!
07"
05"
03"
02"
01"
00"
0/"
0."
0-"
0,"
0+"
0*"
0)"
0("
0G"
0E"
0C"
0B"
0A"
0@"
0?"
0>"
0="
0<"
0;"
0:"
09"
08"
b0 o!
b1011 o!
1O
1N
1L
0G
b0 $!
09
05
03
#390000
0#
0f
#395000
1#
1f
b1011 *!
#400000
0#
0f
#405000
1#
1f
b10000 X
1_
0_
b1111 W
b1001001 [
b101 ]
b100010001000101010000110101111101000001 ^
b1001001 !
b101 (
1n
1w
0v
1q
1=!
0<!
17!
1M!
0L!
1G!
1U!
0T!
1O!
1n!
1`!
0_!
1Z!
1}!
0|!
1w!
17"
06"
11"
1G"
0F"
1A"
b0 o!
b1001000 o!
0O
0N
1I
b1011 $!
b0 *!
b1011 *!
19
18
16
#410000
0#
0f
#415000
1#
1f
b0 *!
b1001000 *!
#420000
0#
0f
#425000
1#
1f
b10001 X
1_
0_
b10000 W
b0 [
b0 !
0w
0t
0q
0=!
0:!
07!
0M!
0J!
0G!
0U!
0R!
0O!
0`!
0]!
0Z!
0}!
0z!
0w!
07"
04"
01"
0G"
0D"
0A"
b0 o!
b1111111111111111 o!
1O
1N
1M
1K
1J
1H
1G
1F
1E
1D
1C
1B
1A
1@
b1001000 $!
b0 *!
b1001000 *!
09
08
13
#430000
0#
0f
#435000
1#
1f
b0 *!
b11111111 *!
#440000
0#
0f
#445000
1#
1f
b10010 X
1_
0_
b10001 W
b1010 [
b1010 !
1v
1t
1<!
1:!
1L!
1J!
1T!
1R!
1_!
1]!
1|!
1z!
16"
14"
1F"
1D"
b0 o!
b1001 o!
0N
0M
0K
0J
0I
0H
0G
0F
0E
0D
0C
0B
0A
0@
b11111111 $!
b0 *!
b11111111 *!
19
18
17
15
14
12
#450000
0#
0f
#455000
1#
1f
b0 *!
b1001 *!
#460000
0#
0f
#465000
1#
1f
b10011 X
1_
0_
b10010 W
b0 [
b1010000 \
b110 ]
b100100101001110010000110101111101000010 ^
b0 !
b1010000 "
b110 (
0n
1m
1{
1y
0v
0t
1A!
1?!
0<!
0:!
0L!
0J!
1I!
1G!
0T!
0R!
1Q!
1P!
1N!
0n!
1m!
1d!
1b!
0_!
0]!
1#"
1!"
0|!
0z!
06"
04"
13"
11"
0F"
0D"
1C"
1B"
1@"
1?"
1>"
1="
1<"
1;"
1:"
19"
18"
b0 o!
b1010001 o!
0L
1K
1I
b1001 $!
b0 *!
b1001 *!
08
07
05
04
03
02
#470000
0#
0f
#475000
1#
1f
b0 *!
b1010001 *!
#480000
0#
0f
#485000
1#
1f
b10100 X
1_
0_
b10011 W
b11111111 \
b11111111 "
1!!
1~
1}
1|
1z
1x
1E!
1D!
1C!
1B!
1@!
1>!
1M!
1L!
1K!
1J!
1H!
1F!
1U!
0Q!
0P!
0N!
1h!
1g!
1f!
1e!
1c!
1a!
1'"
1&"
1%"
1$"
1""
1~!
17"
16"
15"
14"
12"
10"
1/"
1."
1-"
1,"
1+"
1*"
1)"
1("
1G"
0C"
0B"
0@"
0?"
0>"
0="
0<"
0;"
0:"
09"
08"
b0 o!
b100000000 o!
0O
0K
0I
1G
b1010001 $!
b0 *!
b1010001 *!
06
15
13
#490000
0#
0f
#495000
1#
1f
b0 *!
#500000
0#
0f
#505000
1#
1f
b10101 X
1_
0_
b10100 W
b1001001 \
b111 ]
b100010001000101010000110101111101000010 ^
b1001001 "
b111 (
1n
0~
0}
0{
0z
0x
0D!
0C!
0A!
0@!
0>!
0L!
0K!
0I!
0H!
0F!
1T!
1S!
1Q!
1P!
1N!
1n!
0g!
0f!
0d!
0c!
0a!
0&"
0%"
0#"
0""
0~!
06"
05"
03"
02"
00"
0/"
0."
0-"
0,"
0+"
0*"
0)"
0("
1F"
1E"
1C"
1B"
1@"
1?"
1>"
1="
1<"
1;"
1:"
19"
18"
b0 o!
b1001000 o!
1L
1I
0G
b0 $!
09
05
03
#510000
0#
0f
#515000
1#
1f
b1001000 *!
#520000
0#
0f
#525000
1#
1f
b10110 X
1_
0_
b10101 W
b0 \
b0 "
0!!
0|
0y
0E!
0B!
0?!
0M!
0J!
0G!
0U!
0T!
0S!
0Q!
0P!
0N!
0h!
0e!
0b!
0'"
0$"
0!"
07"
04"
01"
0G"
0F"
0E"
0C"
0B"
0@"
0?"
0>"
0="
0<"
0;"
0:"
09"
08"
b0 o!
b1111111111111111 o!
1O
1N
1M
1K
1J
1H
1G
1F
1E
1D
1C
1B
1A
1@
b1001000 $!
b0 *!
b1001000 *!
16
13
#530000
0#
0f
#535000
1#
1f
b0 *!
b11111111 *!
#540000
0#
0f
#545000
1#
1f
b10111 X
1_
0_
b10110 W
b11001000 [
b1100100 \
b1000 ]
b100001101001101010100000010000000101000011001010111000101110101011000010110110000101001 ^
b11001000 !
b1100100 "
b1000 (
0n
0m
0l
1k
1}
1z
1y
1t
1q
1p
1C!
1@!
1?!
1:!
17!
16!
1K!
1J!
1H!
1S!
1P!
1O!
0n!
0m!
0l!
1k!
1f!
1c!
1b!
1]!
1Z!
1Y!
1%"
1""
1!"
1z!
1w!
1v!
15"
14"
12"
1E"
1B"
1A"
1?"
1>"
1="
1<"
1;"
1:"
19"
18"
b0 o!
1r!
0O
0N
0M
0L
0K
0J
0I
0H
0G
0F
0E
0D
0C
0B
0A
0@
1R
b11111111 $!
b0 *!
b11111111 *!
19
18
17
15
14
12
#550000
0#
0f
#555000
1#
1f
b0 *!
1.!
#560000
0#
0f
#565000
1#
1f
b11000 X
1_
0_
1b
0`
0b
1`
b10111 W
b110010 [
b11001000 \
b1000011010011010101000000100000001010000110011101110010011001010110000101110100011001010111001000101001 ^
b110010 !
b11001000 "
0}
1|
0z
1x
1v
0t
1s
1r
0q
0p
0C!
1B!
0@!
1>!
1<!
0:!
19!
18!
07!
06!
1L!
0K!
1I!
1G!
1F!
1T!
0S!
1R!
0f!
1e!
0c!
1a!
1_!
0]!
1\!
1[!
0Z!
0Y!
0%"
1$"
0""
1~!
1|!
0z!
1y!
1x!
0w!
0v!
16"
05"
13"
11"
10"
1/"
1."
1-"
1,"
1+"
1*"
1)"
1("
1F"
0E"
1D"
0?"
0>"
0="
0<"
0;"
0:"
09"
08"
0r!
1t!
0R
1T
b0 $!
1'!
0.!
1.!
09
08
07
06
05
04
03
02
1<
#570000
0#
0f
#575000
1#
1f
0.!
1/!
#580000
0#
0f
#585000
1#
1f
b11001 X
1_
1a
0`
0_
0a
1`
1b
0`
0b
1`
b11000 W
b10000000 [
b10000000 \
b1000011010011010101000000100000001010000110110001100101011100110111001100101001 ^
b10000000 !
b10000000 "
0|
0y
0v
0s
0r
1p
0B!
0?!
0<!
09!
08!
16!
0L!
0J!
0I!
0H!
0G!
0F!
0T!
0R!
0P!
0O!
0e!
0b!
0_!
0\!
0[!
1Y!
0$"
0!"
0|!
0y!
0x!
1v!
06"
04"
03"
02"
01"
00"
0F"
0D"
0B"
0A"
0t!
1s!
0T
1S
0'!
1(!
0/!
1/!
0<
1>
#590000
0#
0f
#595000
1#
1f
0/!
10!
#600000
0#
0f
#605000
1#
1f
b11010 X
1_
1b
0`
0_
1a
0b
0a
1`
b11001 W
b11111110 [
b11111110 \
b1001 ]
b10011010101010101001100010111110100000101000010 ^
b11111110 !
b11111110 "
b1001 (
1n
1~
1}
1|
1{
1z
1y
1v
1u
1t
1s
1r
1q
1D!
1C!
1B!
1A!
1@!
1?!
1<!
1;!
1:!
19!
18!
17!
1K!
1J!
1I!
1H!
1G!
1F!
1n!
1g!
1f!
1e!
1d!
1c!
1b!
1_!
1^!
1]!
1\!
1[!
1Z!
1&"
1%"
1$"
1#"
1""
1!"
1|!
1{!
1z!
1y!
1x!
1w!
15"
14"
13"
12"
11"
10"
0s!
b1111111000000001 o!
0S
1O
1F
1E
1D
1C
1B
1A
1@
0(!
1)!
00!
10!
0>
1=
#610000
0#
0f
#615000
1#
1f
00!
b11111111 3!
b11111111 4!
b1 1!
#620000
0#
0f
#625000
1#
1f
b11011 X
1_
1Z
0)!
b1111111000000001 *!
b0 1!
0=
#630000
0#
0f
#635000
1#
1f
0_
b1111111000000001 $!
b0 *!
b1111111000000001 *!
b1 1!
19
10
1/
1.
1-
1,
1+
1*
#640000
0#
0f
#645000
1#
1f
b11010 W
b11111111 [
b11111111 \
b11111111 !
b11111111 "
1!!
1w
1E!
1=!
1L!
1h!
1`!
1'"
1}!
16"
b0 o!
0O
0F
0E
0D
0C
0B
0A
0@
b0 *!
b1111111000000001 *!
b0 1!
#650000
0#
0f
#655000
1#
1f
b0 *!
b0 3!
b0 4!
b1111111000000001 *!
b1 1!
#660000
0#
0f
#665000
1#
1f
b11100 X
1_
b0 *!
b0 1!
#670000
0#
0f
#675000
1#
1f
0_
b0 $!
b1 1!
09
00
0/
0.
0-
0,
0+
0*
#680000
0#
0f
