src/design/log_file.log
# vsim work.alu_testbench -l log_file.log -coverage -c -do "coverage save -onexit -codeAll coverage_file.ucdb; run -all; exit" 
# Start time: 15:38:04 on May 15,2026
# ** Note: (vsim-3812) Design is being optimized...
# ** Note: (vopt-143) Recognized 2 FSMs in module "alu_design(fast)".
# ** Warning: alu_reference_model.v(3): (vopt-2892) Net type of 'INP_VALID' must be explicitly declared.
# ** Warning: alu_reference_model.v(4): (vopt-2892) Net type of 'OPA' must be explicitly declared.
# ** Warning: alu_reference_model.v(4): (vopt-2892) Net type of 'OPB' must be explicitly declared.
# ** Warning: alu_reference_model.v(6): (vopt-2892) Net type of 'CMD' must be explicitly declared.
# ** Warning: alu_reference_model.v(2): (vopt-2892) Net type of 'CE' must be explicitly declared.
# ** Warning: alu_reference_model.v(5): (vopt-2892) Net type of 'CIN' must be explicitly declared.
# ** Warning: alu_reference_model.v(5): (vopt-2892) Net type of 'MODE' must be explicitly declared.
# //  Questa Sim
# //  Version 10.6c linux Jul 25 2017
# //
# //  Copyright 1991-2017 Mentor Graphics Corporation
# //  All Rights Reserved.
# //
# //  QuestaSim and its associated documentation contain trade
# //  secrets and commercial or financial information that are the property of
# //  Mentor Graphics Corporation and are privileged, confidential,
# //  and exempt from disclosure under the Freedom of Information Act,
# //  5 U.S.C. Section 552. Furthermore, this information
# //  is prohibited from disclosure under the Trade Secrets Act,
# //  18 U.S.C. Section 1905.
# //
# Loading work.alu_testbench(fast)
# Loading work.alu_design(fast)
# Loading work.alu_reference_model(fast)
# coverage save -onexit -codeAll coverage_file.ucdb
#  run -all
# 
# === Testing Arithmetic Operations (MODE=1) ===
# [FAIL]                                                                              ADD: OPA=0x01 OPB=0x01 CMD=0x0
#   DUT: RES=0x0000 COUT=0 OFLOW=0 G=0 E=0 L=0 ERR=1
#   REF: RES=0x0002 COUT=0 OFLOW=0 G=0 E=0 L=0 ERR=0
# [FAIL]                                                                              ADD: OPA=0xff OPB=0x01 CMD=0x0
#   DUT: RES=0x0002 COUT=0 OFLOW=0 G=0 E=0 L=0 ERR=0
#   REF: RES=0x0100 COUT=1 OFLOW=0 G=0 E=0 L=0 ERR=0
# [FAIL]                                                                              ADD: OPA=0x00 OPB=0x00 CMD=0x0
#   DUT: RES=0x0000 COUT=1 OFLOW=0 G=0 E=0 L=0 ERR=0
#   REF: RES=0x0000 COUT=0 OFLOW=0 G=0 E=0 L=0 ERR=0
# [PASS]                                                                              SUB: OPA=0x01 OPB=0x01 CMD=0x1
# [FAIL]                                                                              SUB: OPA=0x00 OPB=0x01 CMD=0x1
#   DUT: RES=0x0000 COUT=0 OFLOW=0 G=0 E=0 L=0 ERR=0
#   REF: RES=0xffff COUT=0 OFLOW=1 G=0 E=0 L=0 ERR=0
# [FAIL]                                                                              SUB: OPA=0x50 OPB=0x50 CMD=0x1
#   DUT: RES=0x00ff COUT=0 OFLOW=1 G=0 E=0 L=0 ERR=0
#   REF: RES=0x0000 COUT=0 OFLOW=0 G=0 E=0 L=0 ERR=0
# [FAIL]                                                                          ADD_CIN: OPA=0xff OPB=0x00 CMD=0x2
#   DUT: RES=0x0000 COUT=0 OFLOW=0 G=0 E=0 L=0 ERR=0
#   REF: RES=0x0100 COUT=1 OFLOW=0 G=0 E=0 L=0 ERR=0
# [FAIL]                                                                          ADD_CIN: OPA=0xff OPB=0x00 CMD=0x2
#   DUT: RES=0x0000 COUT=1 OFLOW=0 G=0 E=0 L=0 ERR=0
#   REF: RES=0x00ff COUT=0 OFLOW=0 G=0 E=0 L=0 ERR=0
# [FAIL]                                                                          ADD_CIN: OPA=0x01 OPB=0x01 CMD=0x2
#   DUT: RES=0x00ff COUT=0 OFLOW=0 G=0 E=0 L=0 ERR=0
#   REF: RES=0x0003 COUT=0 OFLOW=0 G=0 E=0 L=0 ERR=0
# [FAIL]                                                                          SUB_CIN: OPA=0x0a OPB=0x03 CMD=0x3
#   DUT: RES=0x0003 COUT=0 OFLOW=0 G=0 E=0 L=0 ERR=0
#   REF: RES=0x0006 COUT=0 OFLOW=0 G=0 E=0 L=0 ERR=0
# [FAIL]                                                                          SUB_CIN: OPA=0x00 OPB=0x00 CMD=0x3
#   DUT: RES=0x0006 COUT=0 OFLOW=0 G=0 E=0 L=0 ERR=0
#   REF: RES=0xffff COUT=0 OFLOW=1 G=0 E=0 L=0 ERR=0
# [FAIL]                                                                          SUB_CIN: OPA=0x01 OPB=0x01 CMD=0x3
#   DUT: RES=0x00ff COUT=0 OFLOW=1 G=0 E=0 L=0 ERR=0
#   REF: RES=0x0000 COUT=0 OFLOW=0 G=0 E=0 L=0 ERR=0
# [FAIL]                                                                          SUB_CIN: OPA=0x01 OPB=0x01 CMD=0x3
#   DUT: RES=0x0000 COUT=0 OFLOW=0 G=0 E=0 L=0 ERR=0
#   REF: RES=0xffff COUT=0 OFLOW=1 G=0 E=0 L=0 ERR=0
# [FAIL]                                                                            INC_A: OPA=0x50 OPB=0x00 CMD=0x4
#   DUT: RES=0x00ff COUT=0 OFLOW=1 G=0 E=0 L=0 ERR=0
#   REF: RES=0x0051 COUT=0 OFLOW=0 G=0 E=0 L=0 ERR=0
# [FAIL]                                                                            INC_A: OPA=0xff OPB=0x00 CMD=0x4
#   DUT: RES=0x0051 COUT=0 OFLOW=0 G=0 E=0 L=0 ERR=0
#   REF: RES=0x0100 COUT=0 OFLOW=0 G=0 E=0 L=0 ERR=0
# [FAIL]                                                                            INC_A: OPA=0x0a OPB=0x00 CMD=0x4
#   DUT: RES=0x0000 COUT=0 OFLOW=0 G=0 E=0 L=0 ERR=0
#   REF: RES=0x000b COUT=0 OFLOW=0 G=0 E=0 L=0 ERR=0
# [FAIL]                                                                            DEC_A: OPA=0x49 OPB=0x00 CMD=0x5
#   DUT: RES=0x000b COUT=0 OFLOW=0 G=0 E=0 L=0 ERR=0
#   REF: RES=0x0048 COUT=0 OFLOW=0 G=0 E=0 L=0 ERR=0
# [FAIL]                                                                            DEC_A: OPA=0x00 OPB=0x00 CMD=0x5
#   DUT: RES=0x0048 COUT=0 OFLOW=0 G=0 E=0 L=0 ERR=0
#   REF: RES=0xffff COUT=0 OFLOW=0 G=0 E=0 L=0 ERR=0
# [FAIL]                                                                            DEC_A: OPA=0x0a OPB=0x00 CMD=0x5
#   DUT: RES=0x00ff COUT=0 OFLOW=0 G=0 E=0 L=0 ERR=0
#   REF: RES=0x0009 COUT=0 OFLOW=0 G=0 E=0 L=0 ERR=0
# [FAIL]                                                                            INC_B: OPA=0x00 OPB=0x50 CMD=0x6
#   DUT: RES=0x0009 COUT=0 OFLOW=0 G=0 E=0 L=0 ERR=0
#   REF: RES=0x0051 COUT=0 OFLOW=0 G=0 E=0 L=0 ERR=0
# [FAIL]                                                                            INC_B: OPA=0x00 OPB=0xff CMD=0x6
#   DUT: RES=0x0051 COUT=0 OFLOW=0 G=0 E=0 L=0 ERR=0
#   REF: RES=0x0100 COUT=0 OFLOW=0 G=0 E=0 L=0 ERR=0
# [FAIL]                                                                            DEC_B: OPA=0x00 OPB=0x49 CMD=0x7
#   DUT: RES=0x0000 COUT=0 OFLOW=0 G=0 E=0 L=0 ERR=0
#   REF: RES=0x0048 COUT=0 OFLOW=0 G=0 E=0 L=0 ERR=0
# [FAIL]                                                                            DEC_B: OPA=0x00 OPB=0x00 CMD=0x7
#   DUT: RES=0x0048 COUT=0 OFLOW=0 G=0 E=0 L=0 ERR=0
#   REF: RES=0xffff COUT=0 OFLOW=0 G=0 E=0 L=0 ERR=0
# [FAIL]                                                                      CMP (equal): OPA=0xc8 OPB=0x64 CMD=0x8
#   DUT: RES=0x00ff COUT=0 OFLOW=0 G=0 E=0 L=0 ERR=0
#   REF: RES=0x0000 COUT=0 OFLOW=0 G=1 E=0 L=0 ERR=0
# [FAIL]                                                                    CMP (greater): OPA=0x32 OPB=0xc8 CMD=0x8
#   DUT: RES=0x0000 COUT=0 OFLOW=0 G=1 E=0 L=0 ERR=0
#   REF: RES=0x0000 COUT=0 OFLOW=0 G=0 E=0 L=1 ERR=0
# [FAIL]                                                                       CMP (less): OPA=0x80 OPB=0x80 CMD=0x8
#   DUT: RES=0x0000 COUT=0 OFLOW=0 G=0 E=0 L=1 ERR=0
#   REF: RES=0x0000 COUT=0 OFLOW=0 G=0 E=1 L=0 ERR=0
# [FAIL]                                                                           MUL_AB: OPA=0xfe OPB=0xfe CMD=0x9
#   DUT: RES=0xfe01 COUT=0 OFLOW=0 G=0 E=0 L=0 ERR=0
#   REF: RES=0xfe01 COUT=0 OFLOW=0 G=0 E=0 L=0 ERR=0
# [FAIL]                                                                           MUL_AB: OPA=0xff OPB=0xff CMD=0x9
#   DUT: RES=0x0000 COUT=0 OFLOW=0 G=0 E=0 L=0 ERR=0
#   REF: RES=0x0000 COUT=0 OFLOW=0 G=0 E=0 L=0 ERR=0
# [FAIL]                                                                           MUL_AB: OPA=0xfe OPB=0xfe CMD=0x9
#   DUT: RES=0xfe01 COUT=0 OFLOW=0 G=0 E=0 L=0 ERR=0
#   REF: RES=0xfe01 COUT=0 OFLOW=0 G=0 E=0 L=0 ERR=0
# [FAIL]                                                                           MUL_AB: OPA=0x03 OPB=0x04 CMD=0x9
#   DUT: RES=0x0014 COUT=0 OFLOW=0 G=0 E=0 L=0 ERR=0
#   REF: RES=0x0014 COUT=0 OFLOW=0 G=0 E=0 L=0 ERR=0
# [FAIL]                                                                           MUL_AB: OPA=0x00 OPB=0x05 CMD=0x9
#   DUT: RES=0x0006 COUT=0 OFLOW=0 G=0 E=0 L=0 ERR=0
#   REF: RES=0x0006 COUT=0 OFLOW=0 G=0 E=0 L=0 ERR=0
# [FAIL]                                                                           MUL_AB: OPA=0xff OPB=0xff CMD=0x9
#   DUT: RES=0x0000 COUT=0 OFLOW=0 G=0 E=0 L=0 ERR=0
#   REF: RES=0x0000 COUT=0 OFLOW=0 G=0 E=0 L=0 ERR=0
# [FAIL]                                                                           MUL_AB: OPA=0x60 OPB=0x60 CMD=0x9
#   DUT: RES=0x24c1 COUT=0 OFLOW=0 G=0 E=0 L=0 ERR=0
#   REF: RES=0x24c1 COUT=0 OFLOW=0 G=0 E=0 L=0 ERR=0
# [FAIL]                                                                           MUL_AB: OPA=0x7e OPB=0x7e CMD=0x9
#   DUT: RES=0x3f01 COUT=0 OFLOW=0 G=0 E=0 L=0 ERR=0
#   REF: RES=0x3f01 COUT=0 OFLOW=0 G=0 E=0 L=0 ERR=0
# [FAIL]                                                                           MUL_AB: OPA=0x08 OPB=0x08 CMD=0x9
#   DUT: RES=0x0051 COUT=0 OFLOW=0 G=0 E=0 L=0 ERR=0
#   REF: RES=0x0051 COUT=0 OFLOW=0 G=0 E=0 L=0 ERR=0
# [FAIL]                                                                           MUL_AB: OPA=0x03 OPB=0x03 CMD=0x9
#   DUT: RES=0x0010 COUT=0 OFLOW=0 G=0 E=0 L=0 ERR=0
#   REF: RES=0x0010 COUT=0 OFLOW=0 G=0 E=0 L=0 ERR=0
# [FAIL]                                                                           MUL_AB: OPA=0x07 OPB=0x07 CMD=0x9
#   DUT: RES=0x0040 COUT=0 OFLOW=0 G=0 E=0 L=0 ERR=0
#   REF: RES=0x0040 COUT=0 OFLOW=0 G=0 E=0 L=0 ERR=0
# [FAIL]                                                                        SHIFT_MUL: OPA=0xfe OPB=0x00 CMD=0xa
#   DUT: RES=0x0000 COUT=0 OFLOW=0 G=0 E=0 L=0 ERR=0
#   REF: RES=0x0000 COUT=0 OFLOW=0 G=0 E=0 L=0 ERR=0
# [FAIL]                                                                        SHIFT_MUL: OPA=0xff OPB=0x05 CMD=0xa
#   DUT: RES=0x04f6 COUT=0 OFLOW=0 G=0 E=0 L=0 ERR=0
#   REF: RES=0x09f6 COUT=0 OFLOW=0 G=0 E=0 L=0 ERR=0
# [FAIL]                                                                        SHIFT_MUL: OPA=0xfe OPB=0x00 CMD=0xa
#   DUT: RES=0x0000 COUT=0 OFLOW=0 G=0 E=0 L=0 ERR=0
#   REF: RES=0x0000 COUT=0 OFLOW=0 G=0 E=0 L=0 ERR=0
# [FAIL]                                                                        SHIFT_MUL: OPA=0x04 OPB=0x03 CMD=0xa
#   DUT: RES=0x0018 COUT=0 OFLOW=0 G=0 E=0 L=0 ERR=0
#   REF: RES=0x0018 COUT=0 OFLOW=0 G=0 E=0 L=0 ERR=0
# [FAIL]                                                                        SHIFT_MUL: OPA=0x00 OPB=0x05 CMD=0xa
#   DUT: RES=0x0000 COUT=0 OFLOW=0 G=0 E=0 L=0 ERR=0
#   REF: RES=0x0000 COUT=0 OFLOW=0 G=0 E=0 L=0 ERR=0
# [FAIL]                                                                        SHIFT_MUL: OPA=0x7e OPB=0x01 CMD=0xa
#   DUT: RES=0x00fc COUT=0 OFLOW=0 G=0 E=0 L=0 ERR=0
#   REF: RES=0x00fc COUT=0 OFLOW=0 G=0 E=0 L=0 ERR=0
# [FAIL]                                                                        SHIFT_MUL: OPA=0x55 OPB=0x01 CMD=0xa
#   DUT: RES=0x00aa COUT=0 OFLOW=0 G=0 E=0 L=0 ERR=0
#   REF: RES=0x00aa COUT=0 OFLOW=0 G=0 E=0 L=0 ERR=0
# [FAIL]                                                                        SHIFT_MUL: OPA=0x04 OPB=0x02 CMD=0xa
#   DUT: RES=0x0010 COUT=0 OFLOW=0 G=0 E=0 L=0 ERR=0
#   REF: RES=0x0010 COUT=0 OFLOW=0 G=0 E=0 L=0 ERR=0
# [FAIL]                                                                        SHIFT_MUL: OPA=0x02 OPB=0x02 CMD=0xa
#   DUT: RES=0x0008 COUT=0 OFLOW=0 G=0 E=0 L=0 ERR=0
#   REF: RES=0x0008 COUT=0 OFLOW=0 G=0 E=0 L=0 ERR=0
# [FAIL]                                                                        SHIFT_MUL: OPA=0x01 OPB=0x04 CMD=0xa
#   DUT: RES=0x0008 COUT=0 OFLOW=0 G=0 E=0 L=0 ERR=0
#   REF: RES=0x0008 COUT=0 OFLOW=0 G=0 E=0 L=0 ERR=0
# [FAIL]                                                                            S_ADD: OPA=0x10 OPB=0x20 CMD=0xb
#   DUT: RES=0x0008 COUT=0 OFLOW=0 G=0 E=0 L=0 ERR=0
#   REF: RES=0x0030 COUT=0 OFLOW=0 G=0 E=0 L=1 ERR=0
# [FAIL]                                                                            S_ADD: OPA=0x20 OPB=0x10 CMD=0xb
#   DUT: RES=0x0030 COUT=0 OFLOW=0 G=0 E=0 L=0 ERR=0
#   REF: RES=0x0030 COUT=0 OFLOW=0 G=1 E=0 L=0 ERR=0
# [FAIL]                                                                            S_ADD: OPA=0x20 OPB=0x20 CMD=0xb
#   DUT: RES=0x0030 COUT=0 OFLOW=0 G=0 E=0 L=0 ERR=0
#   REF: RES=0x0040 COUT=0 OFLOW=0 G=0 E=1 L=0 ERR=0
# [FAIL]                                                                            S_ADD: OPA=0x70 OPB=0x70 CMD=0xb
#   DUT: RES=0x0040 COUT=0 OFLOW=0 G=0 E=0 L=0 ERR=0
#   REF: RES=0x00e0 COUT=0 OFLOW=1 G=0 E=1 L=0 ERR=0
# [FAIL]                                                                            S_ADD: OPA=0xa0 OPB=0xa0 CMD=0xb
#   DUT: RES=0x00e0 COUT=0 OFLOW=1 G=0 E=0 L=0 ERR=0
#   REF: RES=0xff40 COUT=0 OFLOW=1 G=0 E=1 L=0 ERR=0
# [FAIL]                                                                            S_ADD: OPA=0x10 OPB=0x10 CMD=0xb
#   DUT: RES=0x0040 COUT=0 OFLOW=1 G=0 E=0 L=0 ERR=0
#   REF: RES=0x0020 COUT=0 OFLOW=0 G=0 E=1 L=0 ERR=0
# [FAIL]                                                                            S_ADD: OPA=0x70 OPB=0x90 CMD=0xb
#   DUT: RES=0x0020 COUT=0 OFLOW=0 G=0 E=0 L=0 ERR=0
#   REF: RES=0x0000 COUT=0 OFLOW=0 G=0 E=0 L=1 ERR=0
# [FAIL]                                                                            S_ADD: OPA=0x00 OPB=0x00 CMD=0xb
#   DUT: RES=0x0000 COUT=0 OFLOW=0 G=0 E=0 L=0 ERR=0
#   REF: RES=0x0000 COUT=0 OFLOW=0 G=0 E=1 L=0 ERR=0
# [FAIL]                                                                            S_ADD: OPA=0xff OPB=0xff CMD=0xb
#   DUT: RES=0x0000 COUT=0 OFLOW=0 G=0 E=0 L=0 ERR=0
#   REF: RES=0xfffe COUT=0 OFLOW=0 G=0 E=1 L=0 ERR=0
# [FAIL]                                                                            S_ADD: OPA=0x00 OPB=0x00 CMD=0xb
#   DUT: RES=0x00fe COUT=0 OFLOW=0 G=0 E=0 L=0 ERR=0
#   REF: RES=0x0000 COUT=0 OFLOW=0 G=0 E=1 L=0 ERR=0
# [FAIL]                                                                            S_SUB: OPA=0x50 OPB=0x30 CMD=0xc
#   DUT: RES=0x0000 COUT=0 OFLOW=0 G=0 E=0 L=0 ERR=0
#   REF: RES=0x0020 COUT=0 OFLOW=0 G=1 E=0 L=0 ERR=0
# [FAIL]                                                                            S_SUB: OPA=0x30 OPB=0x50 CMD=0xc
#   DUT: RES=0x0020 COUT=0 OFLOW=0 G=0 E=0 L=0 ERR=0
#   REF: RES=0xffe0 COUT=0 OFLOW=0 G=0 E=0 L=1 ERR=0
# [FAIL]                                                                            S_SUB: OPA=0x40 OPB=0x40 CMD=0xc
#   DUT: RES=0x00e0 COUT=0 OFLOW=0 G=0 E=0 L=0 ERR=0
#   REF: RES=0x0000 COUT=0 OFLOW=0 G=0 E=1 L=0 ERR=0
# [FAIL]                                                                            S_SUB: OPA=0x70 OPB=0x90 CMD=0xc
#   DUT: RES=0x0000 COUT=0 OFLOW=0 G=0 E=0 L=0 ERR=0
#   REF: RES=0x00e0 COUT=0 OFLOW=1 G=0 E=0 L=1 ERR=0
# [FAIL]                                                                            S_SUB: OPA=0xa0 OPB=0x70 CMD=0xc
#   DUT: RES=0x00e0 COUT=0 OFLOW=1 G=0 E=0 L=0 ERR=0
#   REF: RES=0xff30 COUT=0 OFLOW=1 G=1 E=0 L=0 ERR=0
# [FAIL]                                                                            S_SUB: OPA=0x90 OPB=0x70 CMD=0xc
#   DUT: RES=0x0030 COUT=0 OFLOW=1 G=0 E=0 L=0 ERR=0
#   REF: RES=0xff20 COUT=0 OFLOW=1 G=1 E=0 L=0 ERR=0
# [FAIL]                                                                            S_SUB: OPA=0x50 OPB=0x10 CMD=0xc
#   DUT: RES=0x0020 COUT=0 OFLOW=1 G=0 E=0 L=0 ERR=0
#   REF: RES=0x0040 COUT=0 OFLOW=0 G=1 E=0 L=0 ERR=0
# [FAIL]                                                                            S_SUB: OPA=0x02 OPB=0xff CMD=0xc
#   DUT: RES=0x0040 COUT=0 OFLOW=0 G=0 E=0 L=0 ERR=0
#   REF: RES=0x0003 COUT=0 OFLOW=0 G=0 E=0 L=1 ERR=0
# [FAIL]                                                                            S_SUB: OPA=0x10 OPB=0xf0 CMD=0xc
#   DUT: RES=0x0003 COUT=0 OFLOW=0 G=0 E=0 L=0 ERR=0
#   REF: RES=0x0020 COUT=0 OFLOW=0 G=0 E=0 L=1 ERR=0
# [FAIL]                                                                            S_SUB: OPA=0x00 OPB=0x00 CMD=0xc
#   DUT: RES=0x0020 COUT=0 OFLOW=0 G=0 E=0 L=0 ERR=0
#   REF: RES=0x0000 COUT=0 OFLOW=0 G=0 E=1 L=0 ERR=0
# [FAIL]                                                                            S_SUB: OPA=0xff OPB=0xff CMD=0xc
#   DUT: RES=0x0000 COUT=0 OFLOW=0 G=0 E=0 L=0 ERR=0
#   REF: RES=0x0000 COUT=0 OFLOW=0 G=0 E=1 L=0 ERR=0
# [FAIL]                                                                            S_SUB: OPA=0x00 OPB=0x00 CMD=0xc
#   DUT: RES=0x0000 COUT=0 OFLOW=0 G=0 E=0 L=0 ERR=0
#   REF: RES=0x0000 COUT=0 OFLOW=0 G=0 E=1 L=0 ERR=0
# 
# === Testing Arithmetic Operations (INVALID=b01) ===
# [FAIL]                                                                              ADD: OPA=0x01 OPB=0x01 CMD=0x0
#   DUT: RES=0x0000 COUT=0 OFLOW=0 G=0 E=0 L=0 ERR=0
#   REF: RES=0x0000 COUT=0 OFLOW=0 G=0 E=0 L=0 ERR=1
# [PASS]                                                                              ADD: OPA=0xff OPB=0x01 CMD=0x0
# [PASS]                                                                              ADD: OPA=0x00 OPB=0x00 CMD=0x0
# [PASS]                                                                              SUB: OPA=0x01 OPB=0x01 CMD=0x1
# [PASS]                                                                              SUB: OPA=0x00 OPB=0x01 CMD=0x1
# [PASS]                                                                              SUB: OPA=0x50 OPB=0x50 CMD=0x1
# [PASS]                                                                          ADD_CIN: OPA=0xff OPB=0x00 CMD=0x2
# [PASS]                                                                          ADD_CIN: OPA=0xff OPB=0x00 CMD=0x2
# [PASS]                                                                          ADD_CIN: OPA=0x01 OPB=0x01 CMD=0x2
# [PASS]                                                                          SUB_CIN: OPA=0x0a OPB=0x03 CMD=0x3
# [PASS]                                                                          SUB_CIN: OPA=0x00 OPB=0x00 CMD=0x3
# [PASS]                                                                          SUB_CIN: OPA=0x01 OPB=0x01 CMD=0x3
# [PASS]                                                                          SUB_CIN: OPA=0x01 OPB=0x01 CMD=0x3
# [FAIL]                                                                            INC_A: OPA=0x50 OPB=0x00 CMD=0x4
#   DUT: RES=0x0000 COUT=0 OFLOW=0 G=0 E=0 L=0 ERR=1
#   REF: RES=0x0051 COUT=0 OFLOW=0 G=0 E=0 L=0 ERR=0
# [FAIL]                                                                            INC_A: OPA=0xff OPB=0x00 CMD=0x4
#   DUT: RES=0x0051 COUT=0 OFLOW=0 G=0 E=0 L=0 ERR=0
#   REF: RES=0x0100 COUT=0 OFLOW=0 G=0 E=0 L=0 ERR=0
# [FAIL]                                                                            INC_A: OPA=0x0a OPB=0x00 CMD=0x4
#   DUT: RES=0x0000 COUT=0 OFLOW=0 G=0 E=0 L=0 ERR=0
#   REF: RES=0x000b COUT=0 OFLOW=0 G=0 E=0 L=0 ERR=0
# [FAIL]                                                                            DEC_A: OPA=0x49 OPB=0x00 CMD=0x5
#   DUT: RES=0x000b COUT=0 OFLOW=0 G=0 E=0 L=0 ERR=0
#   REF: RES=0x0048 COUT=0 OFLOW=0 G=0 E=0 L=0 ERR=0
# [FAIL]                                                                            DEC_A: OPA=0x00 OPB=0x00 CMD=0x5
#   DUT: RES=0x0048 COUT=0 OFLOW=0 G=0 E=0 L=0 ERR=0
#   REF: RES=0xffff COUT=0 OFLOW=0 G=0 E=0 L=0 ERR=0
# [FAIL]                                                                            DEC_A: OPA=0x0a OPB=0x00 CMD=0x5
#   DUT: RES=0x00ff COUT=0 OFLOW=0 G=0 E=0 L=0 ERR=0
#   REF: RES=0x0009 COUT=0 OFLOW=0 G=0 E=0 L=0 ERR=0
# [FAIL]                                                                            INC_B: OPA=0x00 OPB=0x50 CMD=0x6
#   DUT: RES=0x0009 COUT=0 OFLOW=0 G=0 E=0 L=0 ERR=0
#   REF: RES=0x0000 COUT=0 OFLOW=0 G=0 E=0 L=0 ERR=1
# [PASS]                                                                            INC_B: OPA=0x00 OPB=0xff CMD=0x6
# [PASS]                                                                            DEC_B: OPA=0x00 OPB=0x49 CMD=0x7
# [PASS]                                                                            DEC_B: OPA=0x00 OPB=0x00 CMD=0x7
# [PASS]                                                                      CMP (equal): OPA=0xc8 OPB=0x64 CMD=0x8
# [PASS]                                                                    CMP (greater): OPA=0x32 OPB=0xc8 CMD=0x8
# [PASS]                                                                       CMP (less): OPA=0x80 OPB=0x80 CMD=0x8
# [PASS]                                                                           MUL_AB: OPA=0xfe OPB=0xfe CMD=0x9
# [PASS]                                                                           MUL_AB: OPA=0xff OPB=0xff CMD=0x9
# [PASS]                                                                           MUL_AB: OPA=0xfe OPB=0xfe CMD=0x9
# [PASS]                                                                           MUL_AB: OPA=0x03 OPB=0x04 CMD=0x9
# [PASS]                                                                           MUL_AB: OPA=0x00 OPB=0x05 CMD=0x9
# [PASS]                                                                           MUL_AB: OPA=0xff OPB=0xff CMD=0x9
# [PASS]                                                                           MUL_AB: OPA=0x60 OPB=0x60 CMD=0x9
# [PASS]                                                                           MUL_AB: OPA=0x7e OPB=0x7e CMD=0x9
# [PASS]                                                                           MUL_AB: OPA=0x08 OPB=0x08 CMD=0x9
# [PASS]                                                                           MUL_AB: OPA=0x03 OPB=0x03 CMD=0x9
# [PASS]                                                                           MUL_AB: OPA=0x07 OPB=0x07 CMD=0x9
# [PASS]                                                                        SHIFT_MUL: OPA=0xfe OPB=0x00 CMD=0xa
# [PASS]                                                                        SHIFT_MUL: OPA=0xff OPB=0x05 CMD=0xa
# [PASS]                                                                        SHIFT_MUL: OPA=0xfe OPB=0x00 CMD=0xa
# [PASS]                                                                        SHIFT_MUL: OPA=0x04 OPB=0x03 CMD=0xa
# [PASS]                                                                        SHIFT_MUL: OPA=0x00 OPB=0x05 CMD=0xa
# [PASS]                                                                        SHIFT_MUL: OPA=0x7e OPB=0x01 CMD=0xa
# [PASS]                                                                        SHIFT_MUL: OPA=0x55 OPB=0x01 CMD=0xa
# [PASS]                                                                        SHIFT_MUL: OPA=0x04 OPB=0x02 CMD=0xa
# [PASS]                                                                        SHIFT_MUL: OPA=0x02 OPB=0x02 CMD=0xa
# [PASS]                                                                        SHIFT_MUL: OPA=0x01 OPB=0x04 CMD=0xa
# [PASS]                                                                            S_ADD: OPA=0x10 OPB=0x20 CMD=0xb
# [PASS]                                                                            S_ADD: OPA=0x20 OPB=0x10 CMD=0xb
# [PASS]                                                                            S_ADD: OPA=0x20 OPB=0x20 CMD=0xb
# [PASS]                                                                            S_ADD: OPA=0x70 OPB=0x70 CMD=0xb
# [PASS]                                                                            S_ADD: OPA=0xa0 OPB=0xa0 CMD=0xb
# [PASS]                                                                            S_ADD: OPA=0x10 OPB=0x10 CMD=0xb
# [PASS]                                                                            S_ADD: OPA=0x70 OPB=0x90 CMD=0xb
# [PASS]                                                                            S_ADD: OPA=0x00 OPB=0x00 CMD=0xb
# [PASS]                                                                            S_ADD: OPA=0xff OPB=0xff CMD=0xb
# [PASS]                                                                            S_ADD: OPA=0x00 OPB=0x00 CMD=0xb
# [PASS]                                                                            S_SUB: OPA=0x50 OPB=0x30 CMD=0xc
# [PASS]                                                                            S_SUB: OPA=0x30 OPB=0x50 CMD=0xc
# [PASS]                                                                            S_SUB: OPA=0x40 OPB=0x40 CMD=0xc
# [PASS]                                                                            S_SUB: OPA=0x70 OPB=0x90 CMD=0xc
# [PASS]                                                                            S_SUB: OPA=0xa0 OPB=0x70 CMD=0xc
# [PASS]                                                                            S_SUB: OPA=0x90 OPB=0x70 CMD=0xc
# [PASS]                                                                            S_SUB: OPA=0x50 OPB=0x10 CMD=0xc
# [PASS]                                                                            S_SUB: OPA=0x02 OPB=0xff CMD=0xc
# [PASS]                                                                            S_SUB: OPA=0x10 OPB=0xf0 CMD=0xc
# [PASS]                                                                            S_SUB: OPA=0x00 OPB=0x00 CMD=0xc
# [PASS]                                                                            S_SUB: OPA=0xff OPB=0xff CMD=0xc
# [PASS]                                                                            S_SUB: OPA=0x00 OPB=0x00 CMD=0xc
# 
# === Testing Arithmetic Operations (INVALID=b10) ===
# [PASS]                                                                              ADD: OPA=0x01 OPB=0x01 CMD=0x0
# [PASS]                                                                              ADD: OPA=0xff OPB=0x01 CMD=0x0
# [PASS]                                                                              ADD: OPA=0x00 OPB=0x00 CMD=0x0
# [PASS]                                                                              SUB: OPA=0x01 OPB=0x01 CMD=0x1
# [PASS]                                                                              SUB: OPA=0x00 OPB=0x01 CMD=0x1
# [PASS]                                                                              SUB: OPA=0x50 OPB=0x50 CMD=0x1
# [PASS]                                                                          ADD_CIN: OPA=0xff OPB=0x00 CMD=0x2
# [PASS]                                                                          ADD_CIN: OPA=0xff OPB=0x00 CMD=0x2
# [PASS]                                                                          ADD_CIN: OPA=0x01 OPB=0x01 CMD=0x2
# [PASS]                                                                          SUB_CIN: OPA=0x0a OPB=0x03 CMD=0x3
# [PASS]                                                                          SUB_CIN: OPA=0x00 OPB=0x00 CMD=0x3
# [PASS]                                                                          SUB_CIN: OPA=0x01 OPB=0x01 CMD=0x3
# [PASS]                                                                          SUB_CIN: OPA=0x01 OPB=0x01 CMD=0x3
# [PASS]                                                                            INC_A: OPA=0x50 OPB=0x00 CMD=0x4
# [PASS]                                                                            INC_A: OPA=0xff OPB=0x00 CMD=0x4
# [PASS]                                                                            INC_A: OPA=0x0a OPB=0x00 CMD=0x4
# [PASS]                                                                            DEC_A: OPA=0x49 OPB=0x00 CMD=0x5
# [PASS]                                                                            DEC_A: OPA=0x00 OPB=0x00 CMD=0x5
# [PASS]                                                                            DEC_A: OPA=0x0a OPB=0x00 CMD=0x5
# [FAIL]                                                                            INC_B: OPA=0x00 OPB=0x50 CMD=0x6
#   DUT: RES=0x0000 COUT=0 OFLOW=0 G=0 E=0 L=0 ERR=1
#   REF: RES=0x0051 COUT=0 OFLOW=0 G=0 E=0 L=0 ERR=0
# [FAIL]                                                                            INC_B: OPA=0x00 OPB=0xff CMD=0x6
#   DUT: RES=0x0051 COUT=0 OFLOW=0 G=0 E=0 L=0 ERR=0
#   REF: RES=0x0100 COUT=0 OFLOW=0 G=0 E=0 L=0 ERR=0
# [FAIL]                                                                            DEC_B: OPA=0x00 OPB=0x49 CMD=0x7
#   DUT: RES=0x0000 COUT=0 OFLOW=0 G=0 E=0 L=0 ERR=0
#   REF: RES=0x0048 COUT=0 OFLOW=0 G=0 E=0 L=0 ERR=0
# [FAIL]                                                                            DEC_B: OPA=0x00 OPB=0x00 CMD=0x7
#   DUT: RES=0x0048 COUT=0 OFLOW=0 G=0 E=0 L=0 ERR=0
#   REF: RES=0xffff COUT=0 OFLOW=0 G=0 E=0 L=0 ERR=0
# [FAIL]                                                                      CMP (equal): OPA=0xc8 OPB=0x64 CMD=0x8
